<?xml version="1.0" encoding="utf-8"?>
<!-- Generator: Adobe Illustrator 22.1.0, SVG Export Plug-In . SVG Version: 6.00 Build 0)  -->
<svg version="1.1" id="Layer_1" xmlns="http://www.w3.org/2000/svg" xmlns:xlink="http://www.w3.org/1999/xlink" x="0px" y="0px"
	 viewBox="0 0 600 310" style="enable-background:new 0 0 600 310;" xml:space="preserve">
<style type="text/css">
	.st0{fill:#D6D6D6;}
	.st1{fill:#FFFFFF;}
	.st2{opacity:7.000000e-02;}
	.st3{fill:#B98770;}
	.st4{opacity:0.5;}
	.st5{fill:#844A23;}
	.st6{fill:#777777;}
	.st7{fill:#282828;}
	.st8{opacity:0.15;}
	.st9{clip-path:url(#SVGID_2_);fill:#262223;}
	.st10{fill:#F7F9F9;}
	.st11{opacity:0.2;}
	.st12{fill:#5E5E5E;}
	.st13{fill:#515151;}
	.st14{fill:#3A3A3A;}
	.st15{opacity:0.1;}
	.st16{fill:#920000;}
	.st17{opacity:0.3;}
	.st18{fill:none;stroke:#844A23;stroke-width:9;stroke-miterlimit:10;}
	.st19{opacity:0.15;clip-path:url(#SVGID_4_);}
	.st20{clip-path:url(#SVGID_6_);fill:#262223;}
	.st21{fill:#3C874A;}
	.st22{fill:#76CA57;}
	.st23{fill:#F4564A;}
	.st24{fill:#F0DF24;}
	.st25{fill:#897619;}
	.st26{fill:#9B1B18;}
	.st27{clip-path:url(#SVGID_8_);fill:#262223;}
</style>
<g>
	<g>
		<path class="st0" d="M357.9,259c-26.4-11.6-53.8-20.5-83.7-27.2c-26.5-5.9-51.8-9.4-77.5-12.7l0.3-2c25.8,3.3,51.1,6.8,77.7,12.7
			c30.1,6.7,57.6,15.6,84.1,27.3L357.9,259z"/>
	</g>
	<g>
		<path class="st0" d="M199,159.9l-1-1.8c16.7-9,33-16.6,50.2-24.8c33-15.6,67.1-31.7,106.7-58.2l1.1,1.7
			c-39.7,26.6-73.9,42.7-106.9,58.3C231.9,143.3,215.6,151,199,159.9z"/>
	</g>
	<g>
		<path class="st0" d="M350.9,218.3c-55.4-12.5-108.8-14.4-153.7-14.7l0-2c45,0.2,98.5,2.2,154.1,14.7L350.9,218.3z"/>
	</g>
	<g>
		<path class="st0" d="M198.4,176.8l-0.5-1.9c20.1-5.5,40.5-10.2,60.1-14.7c29.5-6.7,59.9-13.7,90.6-23.9l0.6,1.9
			c-30.8,10.2-61.3,17.2-90.8,23.9C238.7,166.6,218.4,171.3,198.4,176.8z"/>
	</g>
	<g>
		<path class="st0" d="M299.3,268.5l-2,0l-0.4-32.4l2.2-1.6c10.2-7.7,19.9-14.9,29.5-22.6c1.1-25.6,3.4-49,7-71.4
			c-9.6-14.1-17.9-25.6-26.1-36.4l1.6-1.2c8.2,10.9,16.6,22.6,26.4,36.8l0.2,0.3l-0.1,0.4c-3.6,22.6-5.9,46.2-7.1,72l0,0.5l-0.4,0.3
			c-9.7,7.9-19.5,15.2-29.9,22.9l-1.4,1L299.3,268.5z"/>
	</g>
	<g>
		<path class="st0" d="M236.9,224.6c-5.9-6.8-11.8-13.7-17.8-21.2l-0.2-0.2l0-0.3c-1.6-10.1-3.4-20.8-5.4-30.9l-0.1-0.4l0.2-0.3
			c3.1-5.4,6-10.6,8.9-15.5c2.7-4.7,5.3-9.1,8-13.8l1.8,1c-2.6,4.7-5.2,9.1-8,13.8c-2.8,4.9-5.8,9.9-8.7,15.2
			c2,9.9,3.7,20.4,5.3,30.3c6,7.3,11.7,14.2,17.6,20.9L236.9,224.6z"/>
	</g>
	<g>
		<path class="st0" d="M270.5,230l-2-0.3c1.2-7.5,2.4-15.6,3.8-24.9c-0.2-15.7-0.4-31.8-0.6-47.9c-2.5-9.4-5.3-19.5-8.2-29.8
			l1.9-0.6c3,10.4,5.7,20.6,8.3,30l0,0.1l0,0.1c0.2,16.1,0.4,32.3,0.6,48.1l0,0.1l0,0.1C272.9,214.3,271.7,222.5,270.5,230z"/>
	</g>
</g>
<g>
	<path class="st1" d="M222.9,293.2c1.1-0.7,1.9-1.9,1.9-3.3c0-2.2-2-4-4.4-4c-2.5,0-4.4,1.8-4.4,4h-25.8c0-2.2-2-4-4.4-4
		c-2.5,0-4.4,1.8-4.4,4c0,1.4,0.7,2.6,1.9,3.3c-1.1,0.7-1.9,1.9-1.9,3.3c0,2.2,2,4,4.4,4c2.5,0,4.4-1.8,4.4-4h25.8c0,2.2,2,4,4.4,4
		c2.5,0,4.4-1.8,4.4-4C224.8,295.2,224,294,222.9,293.2z"/>
</g>
<g class="st2">
	<path d="M203.5,296.5h12.4c0,2.2,2,4,4.4,4c2.5,0,4.4-1.8,4.4-4c0-1.4-0.7-2.6-1.9-3.3c1.1-0.7,1.9-1.9,1.9-3.3c0-2.2-2-4-4.4-4
		c-2.5,0-4.4,1.8-4.4,4h-12.4"/>
</g>
<g>
	<path class="st3" d="M310.2,62c0,2.3,4.5,7.3,4.5,12.5c0,3.4-2.2,6.1-5.6,6.1h-0.5c-3.4,0-5.6-2.7-5.6-6.1c0-5.2,4.5-10.2,4.5-12.5
		"/>
</g>
<g class="st4">
	<path class="st1" d="M307.7,80.5c-3.4,0-4.7-2.7-4.7-6.1c0-5.2,4.5-10.2,4.5-12.5"/>
</g>
<g>
	<path class="st5" d="M309.1,81.5h-0.5c-3.8,0-6.6-3-6.6-7.1c0-3.4,1.7-6.5,3-9.1c0.8-1.4,1.5-2.8,1.5-3.4c0-0.6,0.5-1,1-1
		s1,0.5,1,1c0,1.2-0.7,2.6-1.7,4.4c-1.2,2.3-2.8,5.2-2.8,8.1c0,3,1.9,5.1,4.6,5.1h0.5c2.7,0,4.6-2.1,4.6-5.1c0-2.9-1.5-5.8-2.8-8.1
		c-0.9-1.8-1.7-3.2-1.7-4.4c0-0.6,0.5-1,1-1c0.6,0,1,0.5,1,1c0,0.7,0.7,2,1.5,3.4c1.3,2.5,3,5.7,3,9.1
		C315.7,78.5,312.9,81.5,309.1,81.5z"/>
</g>
<g>
	<g>
		<path class="st1" d="M463.2,19.9h-77.7c-3.3,0-6.1-2.7-6.1-6.1v-0.6c0-3.3,2.7-6.1,6.1-6.1h77.7c3.3,0,6.1,2.7,6.1,6.1v0.6
			C469.3,17.2,466.6,19.9,463.2,19.9z"/>
	</g>
	<g>
		<path d="M466,20.9h-83.1c-2.4,0-4.4-2-4.4-4.4v-6c0-2.4,2-4.4,4.4-4.4H466c2.4,0,4.4,2,4.4,4.4v6C470.3,19,468.4,20.9,466,20.9z
			 M382.8,8.2c-1.3,0-2.3,1.1-2.3,2.3v6c0,1.3,1.1,2.3,2.3,2.3H466c1.3,0,2.3-1.1,2.3-2.3v-6c0-1.3-1.1-2.3-2.3-2.3H382.8z"/>
	</g>
	<g>
		<path d="M344.8,42.6l-1.7-1.1c0.6-1,15.5-23.3,17.9-26.4c2.7-3.5,5-4.6,9.1-4.6h131.9c2.4,0,4.4,2,4.4,4.4v26.4h-2V14.8
			c0-1.3-1.1-2.3-2.3-2.3H370.1c-3.4,0-5.2,0.9-7.5,3.9C360.2,19.4,344.9,42.4,344.8,42.6z"/>
	</g>
	<g>
		<path class="st6" d="M343.9,42c0,0,15.4-23.2,17.9-26.4c2.5-3.1,4.5-4.2,8.3-4.2h131.9c1.8,0,3.4,1.5,3.4,3.4v26.4"/>
	</g>
	<g class="st4">
		<path class="st1" d="M435.2,41.9 M437.5,36 M451.8,14.9 M456.2,14.9l7.4-3.4l0,0H370c-3.8,0-5.8,1.1-8.3,4.2
			c-2.5,3.1-17.9,26.4-17.9,26.4l3.4,1c4.6-7,15.3-22.9,17.2-25.3c1.9-2.4,3-3,5.6-3h81.9"/>
	</g>
	<g>
		<rect x="343.7" y="42" class="st6" width="95" height="248.5"/>
	</g>
	<g>
		<polyline class="st7" points="343.7,245.3 438.2,245.3 505.3,245.3 		"/>
		<rect x="343.7" y="244.3" class="st7" width="161.6" height="2"/>
	</g>
	<g class="st8">
		<g>
			<defs>
				<path id="SVGID_1_" d="M346.4,59.1c1.6,3.3,3.7,7.9,4.2,9c0.8,1.8,2.3,3,4.8,3h11.3c2.6,0,4-1.2,4.8-3c0.5-1.1,2.6-5.6,4.2-9
					h5.6c1.7,0,3-1.3,3-3v-4h53.7l0.9-13.2c0-1.8,9.7-14.5,7.9-14.5h-50.2l-49.5,11.2"/>
			</defs>
			<clipPath id="SVGID_2_">
				<use xlink:href="#SVGID_1_"  style="overflow:visible;"/>
			</clipPath>
			<rect x="410.6" y="24.5" class="st9" width="38.3" height="46.6"/>
			<rect x="355.5" y="24.5" class="st9" width="55" height="46.6"/>
			<rect x="346.4" y="24.5" class="st9" width="9.1" height="46.6"/>
		</g>
	</g>
	<g class="st4">
		<rect x="343.7" y="42" class="st1" width="3.4" height="248.5"/>
	</g>
	<g>
		<path d="M344.8,42.6l-1.7-1.1c0.6-1,15.5-23.3,17.9-26.4c2.7-3.5,5-4.6,9.1-4.6h131.9c2.4,0,4.4,2,4.4,4.4v26.4h-2V14.8
			c0-1.3-1.1-2.3-2.3-2.3H370.1c-3.4,0-5.2,0.9-7.5,3.9C360.2,19.4,344.9,42.4,344.8,42.6z"/>
	</g>
	<g>
		<path class="st7" d="M439.7,291.6h-97V41h97V291.6z M344.7,289.6h93V43h-93V289.6z"/>
	</g>
	<g>
		<g>
			<path class="st10" d="M326.1,46.5c0,0-5.3,11.1-6.2,13c-0.8,1.8-2.3,3-4.9,3h-11.5c-2.6,0-4.1-1.2-4.9-3c-0.8-1.8-6.2-13-6.2-13"
				/>
		</g>
	</g>
	<g class="st11">
		<path d="M324.8,36.2l-7.1,15.5c0,0,0,0,0,0c-3.3,6.4-7.8,8.1-14.7,8.1h-5.4c1.5,3.3,4.2,3.1,9,3.1h5.3c4.7,0,7.5,0.2,9-3.1
			c1.5-3.3,11.2-23.6,11.2-23.6H324.8z"/>
	</g>
	<g>
		<g>
			<path class="st12" d="M315,63.5h-11.5c-2.8,0-4.8-1.3-5.8-3.6c-0.8-1.8-6.1-12.8-6.1-12.9l1.8-0.9c0.2,0.5,5.3,11.2,6.2,13
				c0.8,1.7,2,2.4,4,2.4H315c2,0,3.3-0.8,4-2.4c0.8-1.8,5.9-12.5,6.2-13l1.8,0.9c-0.1,0.1-5.3,11.2-6.1,12.9
				C319.8,62.2,317.8,63.5,315,63.5z"/>
		</g>
	</g>
	<g>
		<path class="st13" d="M505.1,41.2V14.8c0-1.8-1.5-3.4-3.4-3.4c0,0-34.2,0-38,0s-5.8,1.1-8.3,4.2s-15,21.9-15,21.9l0,0
			c-0.9,1.6-1.6,3.1-1.8,4.5"/>
		<path class="st7" d="M439.7,42.2l-2-0.3c0.2-1.4,0.8-3,1.9-4.8l0-0.1c0.5-0.8,12.6-18.8,15-22c2.7-3.5,5-4.6,9.1-4.6h38
			c2.4,0,4.4,2,4.4,4.4v26.4h-2V14.8c0-1.3-1.1-2.3-2.3-2.3h-38c-3.4,0-5.2,0.9-7.5,3.9c-2.4,3-14.4,21-14.9,21.8
			C440.4,39.7,439.9,41.1,439.7,42.2z"/>
	</g>
	<g>
		<g>
			<path class="st10" d="M333.1,34.3v13c0,1.7-1.4,3-3.1,3h-42.2c-1.7,0-3.1-1.4-3.1-3v-13"/>
		</g>
	</g>
	<g class="st11">
		<path d="M333.1,49.3c1.5-3.4,0.5-12.4,0.5-12.4h-7.1l-6.1,13.5"/>
	</g>
	<g>
		<g>
			<path class="st12" d="M330,51.3h-42.2c-2.3,0-4.1-1.8-4.1-4v-13h2v13c0,1.1,0.9,2,2.1,2H330c1.4,0,2.1-0.5,2.1-1.4V34.3h2V48
				C334.1,50.1,332.5,51.3,330,51.3z"/>
		</g>
	</g>
	<g>
		<path d="M418.4,42.9H316v-2h101.4l5.3-7.9l2.1-3.2c0.3-0.4,0.4-0.9,0.4-1.4c0-1.3-1.1-2.3-2.3-2.3H316v-2h106.8
			c2.4,0,4.4,2,4.4,4.4c0,0.9-0.3,1.8-0.8,2.5l-2,3.2L418.4,42.9z"/>
	</g>
	<g>
		<path class="st13" d="M316,25.1h101.8h5c1.8,0,3.4,1.5,3.4,3.4c0,0.7-0.2,1.4-0.6,2l-2,3.2l-5.6,8.3H316"/>
		<path class="st7" d="M418.4,42.9H316v-2h101.4l5.3-7.9l2.1-3.2c0.3-0.4,0.4-0.9,0.4-1.4c0-1.3-1.1-2.3-2.3-2.3H316v-2h106.8
			c2.4,0,4.4,2,4.4,4.4c0,0.9-0.3,1.8-0.8,2.5l-2,3.2L418.4,42.9z"/>
	</g>
	<g>
		<rect x="463.7" y="10.4" width="38" height="2"/>
	</g>
	<g>
		<path class="st6" d="M287.3,25.1h32.2c4.4,0,8,3.6,8,8v0.8c0,4.4-3.6,8-8,8h-32.2c-4.4,0-8-3.6-8-8v-0.8
			C279.3,28.7,282.9,25.1,287.3,25.1z"/>
	</g>
	<g class="st4">
		<path class="st1" d="M327.6,28.4c0-1.8-1.5-3.3-3.4-3.3l0,0h-41.6c-1.8,0-3.4,1.5-3.4,3.3v10.2c0,1.8,1.5,3.3,3.4,3.3V28.4H327.6z
			"/>
	</g>
	<g>
		<path class="st7" d="M324.3,42.9h-41.6c-2.4,0-4.4-2-4.4-4.4V28.4c0-2.4,2-4.4,4.4-4.4h41.6c2.4,0,4.4,2,4.4,4.4v10.1
			C328.6,40.9,326.7,42.9,324.3,42.9z M282.7,26.1c-1.3,0-2.3,1.1-2.3,2.3v10.1c0,1.3,1.1,2.3,2.3,2.3h41.6c1.3,0,2.3-1.1,2.3-2.3
			V28.4c0-1.3-1.1-2.3-2.3-2.3H282.7z"/>
	</g>
	<g>
		<rect x="438.7" y="42" class="st13" width="66.6" height="248.5"/>
		<path class="st7" d="M506.3,291.6h-68.6V41h68.6V291.6z M439.7,289.6h64.6V43h-64.6V289.6z"/>
	</g>
	<g>
		<circle class="st7" cx="499.3" cy="17.2" r="1.3"/>
		<path class="st7" d="M499.3,19.1c-1,0-1.9-0.9-1.9-1.9c0-1,0.9-1.9,1.9-1.9c1,0,1.9,0.9,1.9,1.9C501.2,18.3,500.3,19.1,499.3,19.1
			z M499.3,16.5c-0.4,0-0.8,0.4-0.8,0.8c0,0.4,0.4,0.8,0.8,0.8c0.4,0,0.8-0.4,0.8-0.8C500,16.8,499.7,16.5,499.3,16.5z"/>
	</g>
	<g>
		<circle class="st7" cx="499.3" cy="36.5" r="1.3"/>
		<path class="st7" d="M499.3,38.4c-1,0-1.9-0.9-1.9-1.9s0.9-1.9,1.9-1.9c1,0,1.9,0.9,1.9,1.9S500.3,38.4,499.3,38.4z M499.3,35.7
			c-0.4,0-0.8,0.4-0.8,0.8s0.4,0.8,0.8,0.8c0.4,0,0.8-0.4,0.8-0.8S499.7,35.7,499.3,35.7z"/>
	</g>
	<g>
		<line class="st13" x1="473.5" y1="19" x2="473.5" y2="34.9"/>
		<path class="st7" d="M473.5,35.9c-0.6,0-1-0.5-1-1V19c0-0.6,0.5-1,1-1s1,0.5,1,1v15.9C474.5,35.4,474,35.9,473.5,35.9z"/>
	</g>
	<g>
		<line class="st13" x1="477.9" y1="19" x2="477.9" y2="34.9"/>
		<path class="st7" d="M477.9,35.9c-0.6,0-1-0.5-1-1V19c0-0.6,0.5-1,1-1s1,0.5,1,1v15.9C478.9,35.4,478.5,35.9,477.9,35.9z"/>
	</g>
	<g>
		<line class="st13" x1="482.4" y1="19" x2="482.4" y2="34.9"/>
		<path class="st7" d="M482.4,35.9c-0.6,0-1-0.5-1-1V19c0-0.6,0.5-1,1-1s1,0.5,1,1v15.9C483.4,35.4,483,35.9,482.4,35.9z"/>
	</g>
	<g>
		<g>
			<path class="st7" d="M362.2,291.3c0,0-2.9,6.1-3.3,7.1s-1.3,1.7-2.7,1.7h-6.2c-1.4,0-2.2-0.7-2.7-1.7s-3.3-7.1-3.3-7.1"/>
			<path class="st7" d="M356.2,301.1h-6.2c-1.7,0-2.9-0.8-3.6-2.3c-0.4-1-3.3-7-3.3-7.1l1.8-0.9c0.1,0.3,2.9,6.1,3.4,7.2
				c0.3,0.8,0.9,1.1,1.8,1.1h6.2c0.9,0,1.4-0.3,1.8-1.1c0.4-1,3.2-6.9,3.4-7.2l1.8,0.9c0,0.1-2.9,6.1-3.3,7.1
				C359.1,300.3,357.9,301.1,356.2,301.1z"/>
		</g>
	</g>
	<g>
		<g>
			<path class="st7" d="M438.2,291.3c0,0-2.9,6.1-3.3,7.1s-1.3,1.7-2.7,1.7h-6.2c-1.4,0-2.2-0.7-2.7-1.7s-3.3-7.1-3.3-7.1"/>
			<path class="st7" d="M432.2,301.1h-6.2c-1.7,0-2.9-0.8-3.6-2.3c-0.4-1-3.3-7-3.3-7.1l1.8-0.9c0.1,0.3,2.9,6.1,3.4,7.2
				c0.3,0.8,0.9,1.1,1.8,1.1h6.2c0.9,0,1.4-0.3,1.8-1.1c0.4-1,3.2-6.9,3.4-7.2l1.8,0.9c0,0.1-2.9,6.1-3.3,7.1
				C435.1,300.3,433.9,301.1,432.2,301.1z"/>
		</g>
	</g>
	<g>
		<path class="st14" d="M414.8,172.9h-46c-17,0.3-15.1-1.4-15-15v-46c0.1-16.8,0.1-14.6,15-15h46c14.9-0.1,15.4-1.9,15,15v46
			C431.7,176.9,427.1,172.8,414.8,172.9z"/>
	</g>
	<g class="st15">
		<path class="st1" d="M429.7,100.2l-34.4,15.9c0,0,0,0,0,0c-20.8,10.7-26.5,25.3-26.5,47.7v9.1c-12.4-2.4-14.2,5-14.2-10.3
			l-0.7-64.4c0,0,3.1-1.3,15.2-1.3c11.9,0,59.2,0.4,59.2,0.4L429.7,100.2z"/>
	</g>
	<g>
		<g>
			<path class="st7" d="M505.2,291.3c0,0-2.9,6.1-3.3,7.1s-1.3,1.7-2.7,1.7H493c-1.4,0-2.2-0.7-2.7-1.7s-3.3-7.1-3.3-7.1"/>
			<path class="st7" d="M499.2,301.1H493c-1.7,0-2.9-0.8-3.6-2.3c-0.4-1-3.3-7-3.3-7.1l1.8-0.9c0.1,0.3,2.9,6.1,3.4,7.2
				c0.3,0.8,0.9,1.1,1.8,1.1h6.2c0.9,0,1.4-0.3,1.8-1.1c0.4-1,3.2-6.9,3.4-7.2l1.8,0.9c0,0.1-2.9,6.1-3.3,7.1
				C502.2,300.3,500.9,301.1,499.2,301.1z"/>
		</g>
	</g>
	<g>
		<path class="st7" d="M426.5,173.9h-69.3c-2.4,0-4.4-2-4.4-4.4v-69.3c0-2.4,2-4.4,4.4-4.4h69.3c2.4,0,4.4,2,4.4,4.4v69.3
			C430.8,172,428.9,173.9,426.5,173.9z M357.2,97.9c-1.3,0-2.3,1.1-2.3,2.3v69.3c0,1.3,1.1,2.3,2.3,2.3h69.3c1.3,0,2.3-1.1,2.3-2.3
			v-69.3c0-1.3-1.1-2.3-2.3-2.3H357.2z"/>
	</g>
	<g>
		<g>
			<path class="st7" d="M336.6,38c-2.5,0-4.5-2-4.5-4.5s2-4.5,4.5-4.5c2.5,0,4.5,2,4.5,4.5S339.1,38,336.6,38z M336.6,30.9
				c-1.4,0-2.5,1.1-2.5,2.5c0,1.4,1.1,2.5,2.5,2.5s2.5-1.1,2.5-2.5C339.1,32.1,338,30.9,336.6,30.9z"/>
		</g>
		<g>
			<circle class="st10" cx="337.4" cy="33.5" r="3.5"/>
		</g>
		<g>
			<circle class="st13" cx="337.4" cy="33.5" r="3.5"/>
			<path class="st7" d="M337.4,38c-0.6,0-1.2-0.1-1.8-0.4c-1.1-0.5-2-1.4-2.4-2.5c-0.5-1.1-0.4-2.4,0-3.5c0.5-1.1,1.4-2,2.5-2.4
				c1.1-0.5,2.4-0.4,3.5,0c2.3,1,3.4,3.6,2.4,5.9C340.9,36.9,339.2,38,337.4,38z M337.4,30.9c-0.3,0-0.6,0.1-0.9,0.2
				c-0.6,0.3-1.1,0.7-1.4,1.4l0,0c-0.5,1.3,0.1,2.8,1.3,3.3c1.3,0.5,2.8-0.1,3.3-1.3c0.5-1.3-0.1-2.8-1.3-3.3
				C338.1,31,337.8,30.9,337.4,30.9z"/>
		</g>
	</g>
	<g>
		<g>
			<circle class="st1" cx="392.3" cy="82.4" r="8.9"/>
		</g>
		<g>
			<path class="st7" d="M392.3,92.3c-5.5,0-9.9-4.4-9.9-9.9c0-5.5,4.4-9.9,9.9-9.9c5.5,0,9.9,4.4,9.9,9.9
				C402.2,87.9,397.7,92.3,392.3,92.3z M392.3,74.5c-4.4,0-7.9,3.5-7.9,7.9s3.5,7.9,7.9,7.9s7.9-3.5,7.9-7.9S396.6,74.5,392.3,74.5z
				"/>
		</g>
		<g>
			<path class="st16" d="M391.4,84l0.4,4.9h1l0.4-4.9c0.5-0.3,0.9-0.9,0.9-1.6c0-1-0.8-1.8-1.8-1.8c-1,0-1.8,0.8-1.8,1.8
				C390.4,83.1,390.8,83.6,391.4,84z"/>
		</g>
	</g>
	<g class="st17">
		<g>
			<g>
				<rect x="356.4" y="99.6" width="6" height="6"/>
			</g>
			<g>
				<rect x="363.6" y="99.6" width="6" height="6"/>
			</g>
			<g>
				<rect x="370.8" y="99.6" width="6" height="6"/>
			</g>
			<g>
				<rect x="378" y="99.6" width="6" height="6"/>
			</g>
			<g>
				<rect x="385.2" y="99.6" width="6" height="6"/>
			</g>
			<g>
				<rect x="392.4" y="99.6" width="6" height="6"/>
			</g>
			<g>
				<rect x="399.6" y="99.6" width="6" height="6"/>
			</g>
			<g>
				<rect x="406.8" y="99.6" width="6" height="6"/>
			</g>
			<g>
				<rect x="414" y="99.6" width="6" height="6"/>
			</g>
			<g>
				<rect x="421.2" y="99.6" width="6" height="6"/>
			</g>
		</g>
		<g>
			<g>
				<rect x="356.4" y="106.8" width="6" height="6"/>
			</g>
			<g>
				<rect x="363.6" y="106.8" width="6" height="6"/>
			</g>
			<g>
				<rect x="370.8" y="106.8" width="6" height="6"/>
			</g>
			<g>
				<rect x="378" y="106.8" width="6" height="6"/>
			</g>
			<g>
				<rect x="385.2" y="106.8" width="6" height="6"/>
			</g>
			<g>
				<rect x="392.4" y="106.8" width="6" height="6"/>
			</g>
			<g>
				<rect x="399.6" y="106.8" width="6" height="6"/>
			</g>
			<g>
				<rect x="406.8" y="106.8" width="6" height="6"/>
			</g>
			<g>
				<rect x="414" y="106.8" width="6" height="6"/>
			</g>
			<g>
				<rect x="421.2" y="106.8" width="6" height="6"/>
			</g>
		</g>
		<g>
			<g>
				<rect x="356.4" y="114" width="6" height="6"/>
			</g>
			<g>
				<rect x="363.6" y="114" width="6" height="6"/>
			</g>
			<g>
				<rect x="370.8" y="114" width="6" height="6"/>
			</g>
			<g>
				<rect x="378" y="114" width="6" height="6"/>
			</g>
			<g>
				<rect x="385.2" y="114" width="6" height="6"/>
			</g>
			<g>
				<rect x="392.4" y="114" width="6" height="6"/>
			</g>
			<g>
				<rect x="399.6" y="114" width="6" height="6"/>
			</g>
			<g>
				<rect x="406.8" y="114" width="6" height="6"/>
			</g>
			<g>
				<rect x="414" y="114" width="6" height="6"/>
			</g>
			<g>
				<rect x="421.2" y="114" width="6" height="6"/>
			</g>
		</g>
		<g>
			<g>
				<rect x="356.4" y="121.2" width="6" height="6"/>
			</g>
			<g>
				<rect x="363.6" y="121.2" width="6" height="6"/>
			</g>
			<g>
				<rect x="370.8" y="121.2" width="6" height="6"/>
			</g>
			<g>
				<rect x="378" y="121.2" width="6" height="6"/>
			</g>
			<g>
				<rect x="385.2" y="121.2" width="6" height="6"/>
			</g>
			<g>
				<rect x="392.4" y="121.2" width="6" height="6"/>
			</g>
			<g>
				<rect x="399.6" y="121.2" width="6" height="6"/>
			</g>
			<g>
				<rect x="406.8" y="121.2" width="6" height="6"/>
			</g>
			<g>
				<rect x="414" y="121.2" width="6" height="6"/>
			</g>
			<g>
				<rect x="421.2" y="121.2" width="6" height="6"/>
			</g>
		</g>
		<g>
			<g>
				<rect x="356.4" y="128.4" width="6" height="6"/>
			</g>
			<g>
				<rect x="363.6" y="128.4" width="6" height="6"/>
			</g>
			<g>
				<rect x="370.8" y="128.4" width="6" height="6"/>
			</g>
			<g>
				<rect x="378" y="128.4" width="6" height="6"/>
			</g>
			<g>
				<rect x="385.2" y="128.4" width="6" height="6"/>
			</g>
			<g>
				<rect x="392.4" y="128.4" width="6" height="6"/>
			</g>
			<g>
				<rect x="399.6" y="128.4" width="6" height="6"/>
			</g>
			<g>
				<rect x="406.8" y="128.4" width="6" height="6"/>
			</g>
			<g>
				<rect x="414" y="128.4" width="6" height="6"/>
			</g>
			<g>
				<rect x="421.2" y="128.4" width="6" height="6"/>
			</g>
		</g>
		<g>
			<g>
				<rect x="356.4" y="135.6" width="6" height="6"/>
			</g>
			<g>
				<rect x="363.6" y="135.6" width="6" height="6"/>
			</g>
			<g>
				<rect x="370.8" y="135.6" width="6" height="6"/>
			</g>
			<g>
				<rect x="378" y="135.6" width="6" height="6"/>
			</g>
			<g>
				<rect x="385.2" y="135.6" width="6" height="6"/>
			</g>
			<g>
				<rect x="392.4" y="135.6" width="6" height="6"/>
			</g>
			<g>
				<rect x="399.6" y="135.6" width="6" height="6"/>
			</g>
			<g>
				<rect x="406.8" y="135.6" width="6" height="6"/>
			</g>
			<g>
				<rect x="414" y="135.6" width="6" height="6"/>
			</g>
			<g>
				<rect x="421.2" y="135.6" width="6" height="6"/>
			</g>
		</g>
		<g>
			<g>
				<rect x="356.4" y="142.9" width="6" height="6"/>
			</g>
			<g>
				<rect x="363.6" y="142.9" width="6" height="6"/>
			</g>
			<g>
				<rect x="370.8" y="142.9" width="6" height="6"/>
			</g>
			<g>
				<rect x="378" y="142.9" width="6" height="6"/>
			</g>
			<g>
				<rect x="385.2" y="142.9" width="6" height="6"/>
			</g>
			<g>
				<rect x="392.4" y="142.9" width="6" height="6"/>
			</g>
			<g>
				<rect x="399.6" y="142.9" width="6" height="6"/>
			</g>
			<g>
				<rect x="406.8" y="142.9" width="6" height="6"/>
			</g>
			<g>
				<rect x="414" y="142.9" width="6" height="6"/>
			</g>
			<g>
				<rect x="421.2" y="142.9" width="6" height="6"/>
			</g>
		</g>
		<g>
			<g>
				<rect x="356.4" y="150.1" width="6" height="6"/>
			</g>
			<g>
				<rect x="363.6" y="150.1" width="6" height="6"/>
			</g>
			<g>
				<rect x="370.8" y="150.1" width="6" height="6"/>
			</g>
			<g>
				<rect x="378" y="150.1" width="6" height="6"/>
			</g>
			<g>
				<rect x="385.2" y="150.1" width="6" height="6"/>
			</g>
			<g>
				<rect x="392.4" y="150.1" width="6" height="6"/>
			</g>
			<g>
				<rect x="399.6" y="150.1" width="6" height="6"/>
			</g>
			<g>
				<rect x="406.8" y="150.1" width="6" height="6"/>
			</g>
			<g>
				<rect x="414" y="150.1" width="6" height="6"/>
			</g>
			<g>
				<rect x="421.2" y="150.1" width="6" height="6"/>
			</g>
		</g>
		<g>
			<g>
				<rect x="356.4" y="164.5" width="6" height="6"/>
			</g>
			<g>
				<rect x="363.6" y="164.5" width="6" height="6"/>
			</g>
			<g>
				<rect x="370.8" y="164.5" width="6" height="6"/>
			</g>
			<g>
				<rect x="378" y="164.5" width="6" height="6"/>
			</g>
			<g>
				<rect x="385.2" y="164.5" width="6" height="6"/>
			</g>
			<g>
				<rect x="392.4" y="164.5" width="6" height="6"/>
			</g>
			<g>
				<rect x="399.6" y="164.5" width="6" height="6"/>
			</g>
			<g>
				<rect x="406.8" y="164.5" width="6" height="6"/>
			</g>
			<g>
				<rect x="414" y="164.5" width="6" height="6"/>
			</g>
			<g>
				<rect x="421.2" y="164.5" width="6" height="6"/>
			</g>
		</g>
		<g>
			<g>
				<rect x="356.4" y="157.3" width="6" height="6"/>
			</g>
			<g>
				<rect x="363.6" y="157.3" width="6" height="6"/>
			</g>
			<g>
				<rect x="370.8" y="157.3" width="6" height="6"/>
			</g>
			<g>
				<rect x="378" y="157.3" width="6" height="6"/>
			</g>
			<g>
				<rect x="385.2" y="157.3" width="6" height="6"/>
			</g>
			<g>
				<rect x="392.4" y="157.3" width="6" height="6"/>
			</g>
			<g>
				<rect x="399.6" y="157.3" width="6" height="6"/>
			</g>
			<g>
				<rect x="406.8" y="157.3" width="6" height="6"/>
			</g>
			<g>
				<rect x="414" y="157.3" width="6" height="6"/>
			</g>
			<g>
				<rect x="421.2" y="157.3" width="6" height="6"/>
			</g>
		</g>
	</g>
	<g>
		<g>
			<g>
				<path class="st7" d="M386.4,187.2c-2.5,0-4.5-2-4.5-4.5s2-4.5,4.5-4.5c2.5,0,4.5,2,4.5,4.5S388.9,187.2,386.4,187.2z
					 M386.4,180.2c-1.4,0-2.5,1.1-2.5,2.5c0,1.4,1.1,2.5,2.5,2.5s2.5-1.1,2.5-2.5C388.9,181.3,387.7,180.2,386.4,180.2z"/>
			</g>
			<g>
				<circle class="st10" cx="385.5" cy="182.7" r="3.5"/>
			</g>
			<g>
				<path class="st7" d="M385.5,187.2c-0.6,0-1.2-0.1-1.7-0.3c-1.1-0.5-2-1.3-2.5-2.4c-1-2.3,0.1-5,2.4-5.9c2.3-1,5,0.1,5.9,2.4l0,0
					c0.5,1.1,0.5,2.3,0,3.5c-0.5,1.1-1.3,2-2.4,2.5C386.7,187.1,386.1,187.2,385.5,187.2z M385.5,180.2c-0.3,0-0.7,0.1-1,0.2
					c-1.3,0.5-1.9,2-1.3,3.3c0.5,1.3,2,1.9,3.3,1.3c0.6-0.3,1.1-0.8,1.4-1.4c0.3-0.6,0.2-1.3,0-1.9l0,0c-0.3-0.6-0.8-1.1-1.4-1.4
					C386.2,180.2,385.9,180.2,385.5,180.2z"/>
			</g>
		</g>
		<g>
			<g>
				<path class="st7" d="M397.5,187.2c-2.5,0-4.5-2-4.5-4.5s2-4.5,4.5-4.5c2.5,0,4.5,2,4.5,4.5S400,187.2,397.5,187.2z M397.5,180.2
					c-1.4,0-2.5,1.1-2.5,2.5c0,1.4,1.1,2.5,2.5,2.5c1.4,0,2.5-1.1,2.5-2.5C400.1,181.3,398.9,180.2,397.5,180.2z"/>
			</g>
			<g>
				<circle class="st10" cx="396.7" cy="182.7" r="3.5"/>
			</g>
			<g>
				<path class="st7" d="M396.7,187.2c-0.6,0-1.2-0.1-1.7-0.3c-1.1-0.5-2-1.3-2.5-2.4c-1-2.3,0.1-5,2.4-5.9c2.3-1,5,0.1,5.9,2.4l0,0
					c0.5,1.1,0.5,2.3,0,3.5c-0.5,1.1-1.3,2-2.4,2.5C397.9,187.1,397.3,187.2,396.7,187.2z M396.7,180.2c-0.3,0-0.7,0.1-1,0.2
					c-1.3,0.5-1.9,2-1.3,3.3c0.5,1.3,2,1.9,3.3,1.3c0.6-0.3,1.1-0.8,1.4-1.4c0.3-0.6,0.2-1.3,0-1.9
					C398.6,180.8,397.7,180.2,396.7,180.2z"/>
			</g>
		</g>
	</g>
	<g>
		<g>
			<rect x="378" y="128.4" class="st1" width="6" height="6"/>
		</g>
		<g>
			<rect x="363.6" y="121.2" class="st1" width="6" height="6"/>
		</g>
		<g>
			<rect x="370.8" y="121.2" class="st1" width="6" height="6"/>
		</g>
		<g>
			<rect x="378" y="121.2" class="st1" width="6" height="6"/>
		</g>
		<g>
			<rect x="399.6" y="121.2" class="st1" width="6" height="6"/>
		</g>
		<g>
			<rect x="406.8" y="121.2" class="st1" width="6" height="6"/>
		</g>
		<g>
			<rect x="414" y="121.2" class="st1" width="6" height="6"/>
		</g>
		<g>
			<rect x="399.6" y="128.4" class="st1" width="6" height="6"/>
		</g>
		<g>
			<rect x="385.2" y="150.1" class="st1" width="6" height="6"/>
		</g>
		<g>
			<rect x="370.8" y="150.1" class="st1" width="6" height="6"/>
		</g>
		<g>
			<rect x="378" y="150.1" class="st1" width="6" height="6"/>
		</g>
		<g>
			<rect x="399.6" y="150.1" class="st1" width="6" height="6"/>
		</g>
		<g>
			<rect x="406.8" y="150.1" class="st1" width="6" height="6"/>
		</g>
		<g>
			<rect x="399.6" y="157.3" class="st1" width="6" height="6"/>
		</g>
		<g>
			<rect x="392.4" y="150.1" class="st1" width="6" height="6"/>
		</g>
		<g>
			<rect x="363.6" y="128.4" class="st1" width="6" height="6"/>
		</g>
		<g>
			<rect x="370.8" y="128.4" class="st1" width="6" height="6"/>
		</g>
		<g>
			<rect x="406.8" y="128.4" class="st1" width="6" height="6"/>
		</g>
		<g>
			<rect x="414" y="128.4" class="st1" width="6" height="6"/>
		</g>
	</g>
	<g>
		<path class="st18" d="M345.6,150"/>
	</g>
</g>
<g>
	<defs>
		<path id="SVGID_3_" d="M501.4,9.8h-0.2h-31.4c-0.1-2.4-2-4.2-4.4-4.2h-83.1c-2.4,0-4.3,1.9-4.4,4.2h-8.4c-4.1,0-6.3,1.2-9.1,4.6
			c-0.9,1.1-3.4,4.8-6.3,9h-30.5h-8.3h-33.3c-2.4,0-4.4,2-4.4,4.4v10.1c0,2.4,2,4.4,4.4,4.4h1v4.5c0,2.2,1.8,4,4.1,4h5.9
			c1.6,3.3,3.5,7.4,4,8.5H297c0.4,1,1,1.6,1.7,2.1c1.1,1,2.6,1.6,4.4,1.6h11.5c2.8,0,4.8-1.3,5.8-3.6c0.5-1,2.4-5.2,4-8.5h5.1
			c2.5,0,4.1-1.3,4.1-3.4v-5.1h8.6V291h0.5l-0.2,0.1c0,0.1,2.9,6.1,3.3,7.1c0.7,1.5,1.9,2.3,3.6,2.3h6.2c1.7,0,2.9-0.8,3.6-2.3
			c0.4-1,3.3-7,3.3-7.1l-0.2-0.1h56.3l-0.2,0.1c0,0.1,2.9,6.1,3.3,7.1c0.7,1.5,1.9,2.3,3.6,2.3h6.2c1.7,0,2.9-0.8,3.6-2.3
			c0.4-1,3.3-7,3.3-7.1l-0.2-0.1h0.8h46.6l-0.2,0.1c0,0.1,2.9,6.1,3.3,7.1c0.7,1.5,1.9,2.3,3.6,2.3h6.2c1.7,0,2.9-0.8,3.6-2.3
			c0.4-1,3.3-7,3.3-7.1l-0.2-0.1h0.4V40.6v-0.1V14.2C505.8,11.8,503.8,9.8,501.4,9.8z"/>
	</defs>
	<clipPath id="SVGID_4_">
		<use xlink:href="#SVGID_3_"  style="overflow:visible;"/>
	</clipPath>
	<g class="st19">
		<g>
			<defs>
				<path id="SVGID_5_" d="M479.4,265.9c0.6-0.7,1-1.6,1-2.5c0-1-0.4-1.8-1.1-2.5c-0.6-0.6-1.3-0.9-2.2-1c-0.2-1-0.4-2.1-0.7-3.1
					c-0.3-1-0.6-2-0.9-2.9c-0.5-1.5-1.8-2.4-3.4-2.4c-0.1,0-0.2,0-0.3,0c-1.1,0.1-2.1,0.7-2.7,1.6c-0.6,1-0.7,2.2-0.3,3.3
					c0.6,1.5,1,3.1,1.2,4.7c-0.4-0.2-0.9-0.3-1.3-0.4c-0.1,0-0.2,0-0.3,0c-1.3,0-2.4,0.7-3,1.7c0.1-0.6,0.2-1.1,0-1.7
					c-0.2-1-0.9-1.8-1.7-2.3c-0.5-0.3-1.1-0.5-1.7-0.5c-1.3,0-2.4,0.7-3.1,1.8c-0.9,1.4-2,2.9-3.2,4.4c-1,1.2-2.1,2.4-3.1,3.5
					c0,0,0,0,0,0c0.1-0.6,0.1-1.3-0.2-1.9c-0.2-0.6-0.6-1.1-1.1-1.5l0.5-0.5l10.7-10.7l0,0c0.1-0.1,0.2-0.2,0.3-0.3
					c1.2-1.4,1.2-3.4,0-4.7c0.7,0,1.4,0.1,2.1,0.3c0.3,0.1,0.6,0.1,0.9,0.1c1.1,0,2.1-0.5,2.8-1.4c0.7-0.9,0.9-2.2,0.6-3.2
					c-0.4-1.1-1.3-2-2.4-2.3c-1.2-0.4-2.5-0.6-4-0.6c-0.1,0-0.1,0-0.2,0c-0.4,0-0.7,0-1.1,0c0.2-0.5,0.4-1,0.4-1.6
					c0-1.4-0.7-2.6-2-3.3c-1.2-0.6-2.4-1.1-3.6-1.5c0.1-0.6,0.1-1.2,0-1.8c-0.4-1.6-1.8-2.6-3.4-2.6c-0.9,0-1.8,0.4-2.5,1
					c-0.6,0.5-1.1,1.1-1.7,1.7c-1-0.1-2.1-0.1-3.1-0.1c-1.4,0-2.7,0.1-4.1,0.3c-0.2-1-0.8-1.8-1.7-2.3c-0.6-0.3-1.2-0.5-1.8-0.5
					c-1.3,0-2.6,0.8-3.2,2c-0.5,0.9-1,1.9-1.5,3c-0.3,0.1-0.6,0.2-0.9,0.4c-3,1.3-5.8,3.1-8.3,5.3c-1.8,1.6-3.4,3.3-4.8,5.2
					c-1.4,2-2.6,4-3.6,6.2c-0.1,0.2-0.2,0.4-0.2,0.6c-0.5-0.3-1.1-0.4-1.6-0.4c-1,0-1.9,0.4-2.6,1.1c-1.1,1.2-1.3,2.9-0.4,4.3
					l0.5,0.8c0.6,1,1.2,2,1.8,3.1c-0.1,0.9-0.2,1.8-0.2,2.7c0,0-0.1,0-0.1,0c-0.9,0-1.7,0.3-2.4,0.9c-0.9,0.8-1.3,2-1.1,3.1
					c0.2,1.2,0.9,2.2,2,2.7c0.9,0.5,1.7,0.8,2.4,1.2c0.1,0.6,0.3,1.2,0.4,1.7c0.8,2.8,2,5.6,3.6,8.1c1.3,2.1,2.8,4.1,4.6,5.8
					c1.2,1.2,2.5,2.3,4,3.4c2.3,1.6,4.7,3,7.3,3.9c2.1,0.8,4.3,1.4,6.5,1.7c0.4,0.8,0.7,1.5,1.1,2.1c0.6,1.2,1.8,1.9,3.2,1.9
					c0.6,0,1.1-0.1,1.6-0.4c1.3-0.7,2-2,2-3.3c1.5-0.1,2.9-0.3,4.4-0.6c0.3,0.1,0.5,0.2,0.8,0.4c0.6,0.3,1.2,0.6,1.8,0.9
					c0.5,0.2,1,0.3,1.4,0.4c0,0,0.1,0,0.1,0c1.6,0,3-1.1,3.4-2.7c0.1-0.6,0.1-1.1,0-1.6c2-1,4-2.3,5.8-3.7c1.7-1.3,3.2-2.8,4.5-4.5
					c1.3-1.5,2.4-3.2,3.4-4.9c0.3-0.2,0.7-0.3,1-0.5c0.7-0.3,1.4-0.7,2-1c1-0.5,1.7-1.5,1.9-2.7c0.2-1.1-0.3-2.3-1.1-3.1
					c-0.2-0.2-0.5-0.4-0.8-0.6c0.4-1.8,0.7-3.6,0.9-5.5C478.1,267.2,478.8,266.5,479.4,265.9z M455.1,250c0.3-0.1,0.6-0.2,0.9-0.4
					c-0.2,0.2-0.5,0.5-0.7,0.7C455.2,250.2,455.1,250.1,455.1,250z M434.3,271.3c-1.9,1.9-3.9,3.9-5.8,5.8c0.1-0.2,0.2-0.4,0.3-0.7
					c1.3-2.9,3.1-5.8,5.4-8.9c0-0.1,0.1-0.1,0.1-0.2C434.3,268.7,434.3,270,434.3,271.3z M439.1,241.3c-2.2,1.2-4.1,2.4-5.7,3.7
					c-0.6,0.5-1.3,1-1.9,1.6c-0.6-0.4-1.2-0.6-2-0.6l0,0c-0.2,0-0.4,0-0.5,0c0.5-0.4,1-0.8,1.5-1.2c1.6-1.2,3.4-2.2,5.3-3
					c1.8-0.8,3.7-1.3,5.6-1.6C440.5,240.6,439.8,240.9,439.1,241.3z M433.4,254.4c0,0,0.1-0.1,0.1-0.1c0.2,0.8,0.3,1.7,0.5,2.5
					c-0.1,0.2-0.3,0.3-0.4,0.5c-1,1-2,2.1-2.9,3.2c0,0,0,0,0,0.1c-0.3-0.5-0.8-0.9-1.3-1.2C430.5,257.6,431.9,256,433.4,254.4z
					 M437.4,263.6c1.1-1.2,2.3-2.5,3.3-3.5c1.3-1.3,2.7-2.5,4-3.6c0.8-0.6,1.6-1.2,2.4-1.8c0.2-0.1,0.4-0.3,0.6-0.4c0,0,0.1,0,0.1,0
					l1,0.2c0.7,0.1,1.3,0.3,2,0.4c-2.3,2.3-4.6,4.6-7,7l-3.1,3.1l0,0c-0.3-0.4-0.6-0.6-1.1-0.9c-0.5-0.3-1.1-0.4-1.7-0.4
					C437.7,263.6,437.5,263.6,437.4,263.6C437.4,263.6,437.4,263.6,437.4,263.6z M426,248.9c0,0.2-0.1,0.4-0.1,0.7
					c0,0.4,0,0.7,0,1.1c0,0.4,0,0.9,0,1.3c-0.1,0.1-0.2,0.3-0.4,0.4c-0.1-0.4-0.3-0.9-0.5-1.2c-0.1-0.2-0.3-0.4-0.4-0.5
					C425.1,250.1,425.5,249.5,426,248.9z M422.5,256.8c-0.7,1.2-1.4,2.3-2,3.5c0.2-1.1,0.5-2.2,0.9-3.3
					C421.8,256.9,422.1,256.9,422.5,256.8z M426.2,266.5c-0.4,0.6-0.8,1.2-1.2,1.8c0.2-0.6,0.4-1.1,0.6-1.7
					C425.8,266.6,426,266.5,426.2,266.5z M455.6,288.4c-1.7,0.8-3.5,1.3-5.3,1.7c1.7-0.8,3.3-1.8,4.9-2.9c0.1-0.1,0.3-0.2,0.4-0.3
					C455.6,287.4,455.6,287.9,455.6,288.4z M448,283.2c-2,1.1-3.9,1.9-5.8,2.4c1.4-0.8,2.7-1.7,4.1-2.8
					C446.9,283,447.5,283.1,448,283.2z M466.9,275.5c1.3-1.9,2.3-3.7,3.1-5.5c-0.6,3.2-1.7,6.1-3.5,8.9c-0.8,1.3-1.7,2.5-2.8,3.6
					c-0.6,0.6-1.2,1.2-1.8,1.8c-0.3-0.3-0.6-0.6-1-0.8c-0.2-0.1-0.5-0.3-0.8-0.3c1.3-1.2,2.5-2.4,3.6-3.7
					C464.9,278.2,466,276.9,466.9,275.5z M457.5,275.9c-1,1.1-2,2.1-3.2,3.1c-0.2-0.7-0.6-1.2-1.2-1.6c1.2-1.1,2.3-2.2,3.5-3.4
					c0.3-0.4,0.7-0.7,1.1-1.1c0.1,0.8,0.2,1.7,0.3,2.6C457.7,275.6,457.6,275.7,457.5,275.9z M447.7,272.6c-1.7,1.5-3.4,2.9-5.1,4.2
					c-1.9,1.4-3.8,2.6-5.6,3.6c-1.3,0.7-2.4,1.3-3.5,1.7l0.9-0.9l6.3-6.3l0.9-0.9c1.1-1.1,2.2-2.2,3.3-3.3c0.7,0,1.4,0,2.1,0
					c0.6,0,1.3,0,1.9,0c0.3,0,0.6,0,0.8-0.1C449.1,271.3,448.4,271.9,447.7,272.6z M448.7,245.2c-2.7,1.5-5.4,3.3-7.9,5.3
					c-0.3,0.2-0.6,0.5-0.9,0.7c-0.3-0.5-0.8-0.9-1.4-1.2c0.1-0.1,0.2-0.1,0.3-0.2c2.1-1.4,4.2-2.6,6.3-3.5c0.5-0.2,1.1-0.4,1.7-0.6
					c0.2-0.1,0.4-0.2,0.7-0.2c0.9-0.3,1.6-1,2-1.8c0.5-1.2,0.4-2.5-0.2-3.5c1.2,0.2,2.4,0.4,3.5,0.8c1,0.3,2.1,0.7,3.1,1.2
					C453.5,242.9,451.1,243.9,448.7,245.2z M464.9,263.6c0,0,0.1-0.1,0.1-0.1c-0.6,1.8-1.3,3.5-2.3,5.2c-0.4-0.2-0.8-0.3-1.2-0.4
					c0.3-0.4,0.6-0.8,1-1.2C463.4,265.9,464.2,264.7,464.9,263.6z"/>
			</defs>
			<clipPath id="SVGID_6_">
				<use xlink:href="#SVGID_5_"  style="overflow:visible;"/>
			</clipPath>
			<rect x="461.6" y="263.4" class="st20" width="3.5" height="5.2"/>
			<rect x="438.5" y="240.2" class="st20" width="14.4" height="11.1"/>
			<rect x="452.9" y="240.2" class="st20" width="2.9" height="11.1"/>
			<rect x="433.5" y="270.7" class="st20" width="16.3" height="11.5"/>
			<rect x="453" y="272.8" class="st20" width="4.8" height="6.2"/>
			<rect x="460.2" y="270.1" class="st20" width="9.9" height="14.3"/>
			<rect x="442.2" y="282.9" class="st20" width="5.8" height="2.8"/>
			<rect x="450.3" y="286.9" class="st20" width="2.6" height="3.2"/>
			<rect x="452.9" y="286.9" class="st20" width="2.8" height="3.2"/>
			<rect x="425" y="266.5" class="st20" width="1.2" height="1.8"/>
			<rect x="420.5" y="256.8" class="st20" width="2" height="3.5"/>
			<rect x="424.6" y="248.9" class="st20" width="1.4" height="3.6"/>
			<rect x="437.4" y="254.2" class="st20" width="13.3" height="10.7"/>
			<rect x="429.3" y="254.3" class="st20" width="4.7" height="6.2"/>
			<rect x="428.9" y="240.2" class="st20" width="12.4" height="6.3"/>
			<rect x="428.5" y="267.4" class="st20" width="5.8" height="9.7"/>
			<rect x="455.1" y="249.6" class="st20" width="0.9" height="0.7"/>
			<rect x="409.1" y="230.2" class="st20" width="43.7" height="71.1"/>
			<rect x="452.9" y="230.2" class="st20" width="27.5" height="71.1"/>
			<rect x="480.4" y="230.2" class="st20" width="0" height="71.1"/>
		</g>
	</g>
</g>
<g>
	<g>
		<g>
			<path class="st21" d="M181.3,206.6l-1.9-0.3l0.1-0.7l-1.6-0.4c0-0.2,0.1-0.4,0.1-0.6v-1.9l1.9,0.3l-0.1,0.7h1.5V206.6z"/>
		</g>
		<g>
			<rect x="173.8" y="206.9" class="st21" width="1.9" height="3.4"/>
		</g>
		<g>
			<polygon class="st21" points="168.7,210.2 166,210.2 166,207.6 167.7,207.6 167.7,206.9 168.7,206.9 168.7,207.6 169.3,207.6 
				169.3,208.6 168.7,208.6 			"/>
		</g>
		<g>
			<path class="st21" d="M126.6,226.4h-3.4v-2h3.4V226.4z M126.6,219h-3.4v-2h3.4V219z M126.6,211.5h-3.4v-2h3.4V211.5z M126.6,204
				h-3.4v-2h3.4V204z M169.3,202H166v-2h3.4V202z M126.6,196.5h-3.4v-2h3.4V196.5z M169.3,194.5H166v-2h3.4V194.5z M126.6,189h-3.4
				v-2h3.4V189z M169.3,187.1H166v-2h3.4V187.1z M126.6,181.5h-3.4v-2h3.4V181.5z M169.3,179.6H166v-2h3.4V179.6z M126.6,174h-3.4
				v-2h3.4V174z M169.3,172.1H166v-2h3.4V172.1z M126.6,166.5h-3.4v-2h3.4V166.5z M169.3,164.6H166v-2h3.4V164.6z M126.6,159h-3.4
				v-2h3.4V159z M169.3,157.1H166v-2h3.4V157.1z M126.6,151.5h-3.4v-2h3.4V151.5z M169.3,149.6H166v-2h3.4V149.6z M126.6,144h-3.4
				v-2h3.4V144z M169.3,142.1H166v-2h3.4V142.1z M126.6,136.5h-3.4v-2h3.4V136.5z M169.3,134.6H166v-2h3.4V134.6z M126.7,129.1
				l-3.3-0.3c0.1-0.7,0.1-1.4,0.3-2.1l3.3,0.6C126.8,127.9,126.7,128.5,126.7,129.1z M165.7,127.4c-0.1-0.6-0.2-1.2-0.4-1.8l3.2-0.9
				c0.2,0.7,0.3,1.4,0.5,2.1L165.7,127.4z M128.4,122.5l-3.1-1.4c0.3-0.6,0.6-1.3,1-1.9l2.9,1.7
				C128.9,121.4,128.6,121.9,128.4,122.5z M163.4,120.9c-0.3-0.5-0.6-1-1-1.5l2.7-1.9c0.4,0.6,0.8,1.2,1.1,1.8L163.4,120.9z
				 M132.3,116.8l-2.4-2.4c0.5-0.5,1-1,1.6-1.5l2.2,2.6C133.2,116,132.7,116.4,132.3,116.8z M159,115.6c-0.5-0.4-1-0.8-1.4-1.1
				l1.9-2.7c0.6,0.4,1.2,0.8,1.7,1.3L159,115.6z M137.9,112.8l-1.4-3c0.6-0.3,1.3-0.6,2-0.8l1.1,3.2
				C139,112.3,138.4,112.6,137.9,112.8z M153.1,112.2c-0.6-0.2-1.2-0.4-1.7-0.5l0.9-3.2c0.7,0.2,1.4,0.4,2,0.6L153.1,112.2z
				 M144.5,111l-0.3-3.3c0.7-0.1,1.4-0.1,2.1-0.1h0v3.4h0C145.7,111,145.1,111,144.5,111z"/>
		</g>
		<g>
			<polygon class="st21" points="126.6,234.7 123.9,234.7 123.9,233 123.3,233 123.3,232 123.9,232 123.9,231.3 124.9,231.3 
				124.9,232 126.6,232 			"/>
		</g>
		<g>
			<rect x="116.8" y="231.3" class="st21" width="1.9" height="3.4"/>
		</g>
		<g>
			<path class="st21" d="M111.1,231.1v-3h1.5l-0.1-0.7l2-0.3v1.9c0,0.2,0,0.4,0.1,0.6l-1.6,0.4l0.1,0.7L111.1,231.1z"/>
		</g>
		<g>
			<path class="st21" d="M118.3,254.1h-2v-3.4h2V254.1z M110.8,254.1h-2v-3.4h2V254.1z M103.2,254.1h-0.2c-0.7,0-1.4-0.1-2.1-0.2
				l0.6-3.3c0.5,0.1,1,0.1,1.5,0.1h0.2V254.1z M95.2,250.9c-0.6-0.5-1.1-1.1-1.5-1.8l2.8-1.9c0.3,0.5,0.7,0.9,1.1,1.3L95.2,250.9z
				 M91.7,243c0-0.1,0-0.2,0-0.3V241H95v1.7c0,0.1,0,0.2,0,0.2L91.7,243z M95,235.4h-3.4v-2H95V235.4z M95,227.9h-3.4v-2H95V227.9z
				 M114.4,222.5h-3.4v-2h3.4V222.5z M95,220.3h-3.4v-2H95V220.3z M114.4,215h-3.4v-2h3.4V215z M95,212.7h-3.4v-2H95V212.7z
				 M114.4,207.4h-3.4v-2h3.4V207.4z M95,205.2h-3.4v-2H95V205.2z M114.4,199.9h-3.4v-2h3.4V199.9z M95,197.6h-3.4v-2H95V197.6z
				 M114.4,192.3h-3.4v-2h3.4V192.3z M95,190.1h-3.4v-2H95V190.1z M114.4,184.8h-3.4v-2l3.4,0V184.8z M95,182.6l-3.4-0.1
				c0-0.8,0.1-1.6,0.3-2.3l3.3,0.8C95.1,181.5,95.1,182,95,182.6z M109.8,178.4c-0.3-0.5-0.6-0.9-1-1.3l2.4-2.4
				c0.5,0.6,1,1.2,1.5,1.8L109.8,178.4z M97.5,177l-2.3-2.4c0.6-0.5,1.2-1,1.8-1.4l1.8,2.8C98.3,176.3,97.9,176.6,97.5,177z
				 M104.8,174.9c-0.5-0.1-1.1-0.2-1.6-0.2l0-3.4c0.8,0,1.6,0.1,2.3,0.3L104.8,174.9z"/>
		</g>
		<g>
			<polygon class="st21" points="124.9,254.1 123.9,254.1 123.9,253.4 123.3,253.4 123.3,252.4 123.9,252.4 123.9,250.7 
				126.6,250.7 126.6,253.4 124.9,253.4 			"/>
		</g>
		<g>
			<path class="st21" d="M126.6,275.9h-3.4v-2h3.4V275.9z M126.6,268.4h-3.4v-2h3.4V268.4z M126.6,260.9h-3.4v-2h3.4V260.9z"/>
		</g>
		<g>
			<polygon class="st21" points="123.3,284.4 123.3,281.4 124.8,281.4 124.7,280.8 125.7,280.6 125.8,281.4 126.6,281.4 
				126.6,282.4 125.9,282.4 126.2,283.9 			"/>
		</g>
		<g>
			<path class="st21" d="M131.4,283.1l-0.5-3.3l1.9-0.3l0.5,3.3L131.4,283.1z M138.5,282l-0.5-3.3l1.9-0.3l0.5,3.3L138.5,282z
				 M145.6,280.9l-0.5-3.3l1.9-0.3l0.5,3.3L145.6,280.9z M152.7,279.8l-0.5-3.3l1.9-0.3l0.5,3.3L152.7,279.8z M159.8,278.6l-0.5-3.3
				l1.9-0.3l0.5,3.3L159.8,278.6z"/>
		</g>
		<g>
			<polygon class="st21" points="166.9,277.5 166.6,275.7 166,275.7 166,274.7 166.5,274.7 166.4,274.2 167.4,274.1 167.5,274.7 
				169.3,274.7 169.3,277.2 			"/>
		</g>
		<g>
			<path class="st21" d="M169.3,268.8H166v-2.1h3.4V268.8z M169.3,260.9H166v-2.1h3.4V260.9z M169.3,252.9H166v-2.1h3.4V252.9z
				 M169.3,244.9H166v-2.1h3.4V244.9z M169.3,236.9H166v-2.1h3.4V236.9z"/>
		</g>
		<g>
			<polygon class="st21" points="168.7,229.6 167.7,229.6 167.7,229 166,229 166,226.3 168.7,226.3 168.7,227.9 169.3,227.9 
				169.3,229 168.7,229 			"/>
		</g>
		<g>
			<path class="st21" d="M189.3,229.6l0-3.4h0c0.6,0,1.1-0.1,1.6-0.2l0.7,3.3C190.9,229.5,190.1,229.6,189.3,229.6z M183.8,229.6h-2
				v-3.4h2V229.6z M176.2,229.6h-2v-3.4h2V229.6z M197.3,226.4l-2.4-2.4c0.4-0.4,0.7-0.8,1.1-1.3l2.8,1.9
				C198.4,225.2,197.9,225.8,197.3,226.4z M200.7,218.4l-3.4-0.1l0-0.1v-1.9h3.4v1.9C200.7,218.3,200.7,218.4,200.7,218.4z
				 M200.7,210.9h-3.4v-2h3.4V210.9z M200.7,203.3h-3.4v-2h3.4V203.3z M181.3,198.1H178v-2h3.4V198.1z M200.7,195.8h-3.4v-2h3.4
				V195.8z M181.3,190.5H178v-2h3.4V190.5z M200.7,188.2h-3.4v-2h3.4V188.2z M181.3,183H178v-2h3.4V183z M200.7,180.7h-3.4v-2h3.4
				V180.7z M181.3,175.4H178v-2h3.4V175.4z M200.7,173.1h-3.4v-2h3.4V173.1z M181.3,167.9H178v-2h3.4V167.9z M200.7,165.6h-3.4v-2
				h3.4V165.6z M181.3,160.3H178v-2h3.4V160.3z M197.3,158.1c0-0.6-0.1-1.1-0.2-1.6l3.3-0.8c0.2,0.8,0.3,1.5,0.3,2.3L197.3,158.1z
				 M182.6,154l-2.8-1.8c0.4-0.7,0.9-1.3,1.5-1.8l2.4,2.3C183.2,153.1,182.9,153.5,182.6,154z M194.9,152.5c-0.4-0.4-0.8-0.7-1.3-1
				l1.8-2.8c0.7,0.4,1.3,0.9,1.8,1.4L194.9,152.5z M187.5,150.5l-0.7-3.3c0.8-0.2,1.5-0.3,2.3-0.3l0.1,3.4
				C188.6,150.3,188.1,150.4,187.5,150.5z"/>
		</g>
	</g>
	<g>
		<path class="st22" d="M189.3,148.6c-5.4,0-9.7,4.3-9.7,9.7v46.3l0,0c0,2-1.6,3.7-3.6,3.9h-8.4v-77.9c0-11.8-9.6-21.4-21.4-21.4
			c-11.8,0-21.4,9.6-21.4,21.4V233h-8.5c-2-0.2-3.6-1.8-3.6-3.9l-0.1,0v-46.3c0-5.4-4.3-9.7-9.7-9.7c-5.4,0-9.7,4.3-9.7,9.7v59.9
			c0,5.4,4.3,9.7,9.7,9.7h21.9v30l42.7,6.7v-61.2h21.7c5.4,0,9.7-4.3,9.7-9.7v-59.9C199,153,194.7,148.6,189.3,148.6z"/>
	</g>
	<g>
		<path class="st21" d="M167.7,283.4h-42.7c-0.6,0-1-0.5-1-1v-29h-20.9c-5.9,0-10.7-4.8-10.7-10.7v-59.9c0-5.9,4.8-10.7,10.7-10.7
			c5.9,0,10.7,4.8,10.7,10.7v46c0,0.1,0.1,0.2,0.1,0.3c0,1.5,1.1,2.7,2.6,2.9h7.5V130.7c0-12.3,10-22.4,22.4-22.4s22.4,10,22.4,22.4
			v76.9h7.3c1.5-0.1,2.6-1.4,2.6-2.9c0-0.1,0-0.1,0-0.2v-46.1c0-5.9,4.8-10.7,10.7-10.7c5.9,0,10.7,4.8,10.7,10.7v59.9
			c0,5.9-4.8,10.7-10.7,10.7h-20.6v53.5C168.7,283,168.2,283.4,167.7,283.4z M125.9,281.4h40.7v-53.5c0-0.6,0.5-1,1-1h21.7
			c4.8,0,8.7-3.9,8.7-8.7v-59.9c0-4.8-3.9-8.7-8.7-8.7c-4.8,0-8.7,3.9-8.7,8.7v46.3c0,0.1,0,0.1,0,0.2c-0.1,2.4-2,4.5-4.5,4.7
			c0,0-0.1,0-0.1,0h-8.4c-0.6,0-1-0.5-1-1v-77.9c0-11.2-9.1-20.4-20.4-20.4c-11.2,0-20.4,9.1-20.4,20.4V233c0,0.6-0.5,1-1,1h-8.5
			c0,0-0.1,0-0.1,0c-2.4-0.2-4.3-2.1-4.5-4.5c0-0.1-0.1-0.2-0.1-0.4v-46.3c0-4.8-3.9-8.7-8.7-8.7c-4.8,0-8.7,3.9-8.7,8.7v59.9
			c0,4.8,3.9,8.7,8.7,8.7h21.9c0.6,0,1,0.5,1,1V281.4z"/>
	</g>
	<g class="st2">
		<path d="M146.3,289.1l22-6.7v-54.5H190c5.4,0,9.7-4.3,9.7-9.7v-59.9c0-5.4-4.3-9.7-9.7-9.7s-9.7,4.3-9.7,9.7v46.3l0,0
			c0,2-1.6,3.7-3.6,3.9h-8.4v-77.9c0-11.8-9.6-21.4-21.4-21.4"/>
	</g>
	<g class="st4">
		<path class="st21" d="M146.3,246.8c-0.6,0-1-0.5-1-1V109.3c0-0.6,0.5-1,1-1c0.6,0,1,0.5,1,1v136.5
			C147.3,246.4,146.9,246.8,146.3,246.8z"/>
	</g>
	<g class="st4">
		<path class="st21" d="M157.5,234.9c-0.6,0-1-0.5-1-1V113.8c0-0.6,0.5-1,1-1c0.6,0,1,0.5,1,1v120.1
			C158.5,234.4,158,234.9,157.5,234.9z"/>
	</g>
	<g class="st4">
		<path class="st21" d="M189.3,207.6c-0.6,0-1-0.5-1-1v-58c0-0.6,0.5-1,1-1c0.6,0,1,0.5,1,1v58C190.3,207.2,189.9,207.6,189.3,207.6
			z"/>
	</g>
	<g class="st4">
		<path class="st21" d="M103.1,232.9c-0.6,0-1-0.5-1-1v-58.8c0-0.6,0.5-1,1-1s1,0.5,1,1v58.8C104.1,232.4,103.6,232.9,103.1,232.9z"
			/>
	</g>
	<g class="st4">
		<path class="st21" d="M135.1,234.9c-0.6,0-1-0.5-1-1V113.8c0-0.6,0.5-1,1-1c0.6,0,1,0.5,1,1v120.1
			C136.1,234.4,135.7,234.9,135.1,234.9z"/>
	</g>
</g>
<g>
	<path class="st23" d="M163,300.1h-33.2c-1.7,0-3.1-1.4-3.1-3.1l-4.1-16.9c0-1.7,1.4-3.1,3.1-3.1H167c1.7,0,3.1,1.4,3.1,3.1L166,297
		C166,298.7,164.6,300.1,163,300.1z"/>
</g>
<g>
	<g>
		<g>
			<path class="st24" d="M461.8,301c-0.8,0-1.6-0.5-1.9-1.2c-0.4-0.7-0.7-1.4-1.2-2.3c-2.1-0.3-4.1-0.8-6.1-1.6
				c-2.2-0.9-4.3-2-6.3-3.4c-1.3-0.9-2.4-1.9-3.4-2.9c-1.5-1.5-2.9-3.2-4-5c-1.4-2.2-2.4-4.6-3.1-7c-0.2-0.6-0.3-1.2-0.4-1.8l0-0.2
				c-0.8-0.4-1.6-0.8-2.6-1.3c-0.7-0.3-1.1-1-1.2-1.7c-0.1-0.7,0.2-1.4,0.7-1.9c0.4-0.4,0.9-0.6,1.4-0.6c0.3,0,0.7,0.1,1,0.2
				c0,0,0,0,0.1,0c0-1.3,0-2.6,0.2-3.9c-0.6-1-1.2-2-1.8-3l-0.5-0.8c-0.5-0.9-0.4-1.9,0.2-2.7c0.4-0.4,1-0.7,1.6-0.7
				c0.3,0,0.7,0.1,1,0.3c0.3,0.2,0.6,0.5,0.8,0.8c0,0,0,0,0,0.1c0.2-0.6,0.4-1.2,0.7-1.8c0.8-1.9,1.8-3.7,3.1-5.3
				c1.2-1.6,2.6-3.2,4.1-4.5c2.1-1.9,4.6-3.4,7.2-4.6c0.3-0.1,0.7-0.3,1.1-0.5c0.5-1,1-2,1.5-3c0.4-0.8,1.1-1.3,2-1.3
				c0.4,0,0.8,0.1,1.1,0.3c0.9,0.5,1.2,1.5,1,2.4c1.5-0.3,3.1-0.4,4.6-0.4c1,0,2.1,0.1,3.1,0.2c0.6-0.6,1.2-1.2,1.8-1.8
				c0.4-0.4,1-0.6,1.5-0.6c1,0,1.8,0.6,2.1,1.6c0.2,0.7,0,1.3-0.4,1.9c1.4,0.4,2.8,1,4.2,1.7c0.8,0.4,1.3,1.1,1.3,2
				c0,0.9-0.5,1.6-1.3,2c-0.3,0.1-0.6,0.2-0.9,0.2c-0.3,0-0.7-0.1-1-0.2c-1.2-0.6-2.5-1.1-3.7-1.5c-2.2-0.7-4.4-1-6.7-1
				c-0.2,0-0.5,0-0.7,0c-2.9,0.1-5.7,0.7-8.4,1.8c-1.7,0.7-3.4,1.7-4.9,2.8c-1.4,1-2.6,2.2-3.7,3.4c-0.8,0.9-1.6,1.9-2.2,2.9
				c0.4,0.2,0.7,0.4,1,0.8c0.4,0.6,0.5,1.3,0.2,2c-0.3,0.8-0.9,1.3-1.7,1.4c-0.5,0.1-1.1,0.2-1.6,0.2c-0.7,1.9-1.2,3.9-1.4,5.9
				c-0.2,1.5-0.2,3-0.1,4.5c0.1-0.3,0.2-0.6,0.3-0.9c0.9-3.1,2.4-6.1,4.4-9.1c0.8-1.2,1.7-2.3,2.6-3.4c0-0.5,0-1.1,0-1.6l0-1
				c0-1.3,0.9-2.2,2.1-2.2c0.7,0,1.3,0.3,1.7,0.9c0.1-0.1,0.1-0.1,0.2-0.2c0.7-0.6,1.4-1.2,2.1-1.8c1.4-1.1,3-2.2,4.9-3.2
				c1.7-0.9,3.4-1.7,5.2-2.2c0.2-0.1,0.5-0.1,0.7-0.1c0.6,0,1.2,0.3,1.6,0.8c0.6,0.7,0.7,1.5,0.3,2.3c-0.2,0.5-0.7,0.9-1.2,1.1
				c-0.2,0.1-0.4,0.1-0.6,0.2c-0.5,0.2-1,0.4-1.5,0.6c-2,0.8-3.9,1.9-5.8,3.2c-1.8,1.2-3.5,2.7-5,4.2c-1.7,1.8-3.2,3.7-4.5,5.8
				c0.1,0,0.1,0,0.2,0c1.1,0,2,0.8,2.1,1.8c0,0.3,0,0.6,0,0.8c0.4-0.6,0.9-1.1,1.3-1.7c0.8-1,1.7-1.9,2.6-2.9
				c0.2-0.3,0.5-0.5,0.7-0.8c-0.2-1-0.4-2-0.6-3c-0.2-1.1,0.4-2.1,1.4-2.5c0.2-0.1,0.5-0.1,0.8-0.1c1,0,1.9,0.7,2.1,1.7
				c0,0.1,0.1,0.3,0.1,0.4c0.6-0.5,1.2-1.1,1.8-1.6c2.2-1.8,4.5-3.4,6.9-4.7c2.2-1.2,4.2-2.1,6.3-2.7c2.1-0.6,3.9-1,5.7-1l0.1,0
				c1.2,0,2.3,0.1,3.2,0.4c0.7,0.2,1.3,0.7,1.5,1.4c0.2,0.7,0.1,1.4-0.3,2c-0.4,0.6-1,0.9-1.7,0.9c-0.2,0-0.4,0-0.6-0.1
				c-0.7-0.2-1.4-0.3-2.1-0.3c-0.9,0-1.9,0.1-3.1,0.4c-1.7,0.4-3.4,1-5.3,1.9c0.2,0.2,0.4,0.4,0.5,0.6c0.4,0.8,0.4,1.7-0.2,2.4
				c-0.4,0.6-1,0.9-1.7,0.9c-0.2,0-0.3,0-0.5,0c-0.7-0.1-1.4-0.3-2-0.4L465,259l-0.2,0c-0.1,0-0.2,0-0.3-0.1
				c-0.3,0.2-0.6,0.4-0.9,0.6c-0.7,0.5-1.4,1.1-2.1,1.6c-1.2,1-2.5,2.1-3.7,3.3c-0.9,0.9-2,2-3,3.2c-1.1,1.3-2.1,2.4-3,3.6
				c-2.2,2.8-3.8,5.5-5,8.2c-0.7,1.7-1.2,3-1.4,4.4c0,0,0,0.1,0,0.1c2.8-2.8,5.5-5.5,8.3-8.3c0-1.4,0-2.7,0-4.1c0-1.2,1-2.2,2.2-2.2
				c0.4,0,0.7,0.1,1.1,0.3c0.6,0.4,1,0.9,1.1,1.7c0,0,11.1-11.1,16.2-16.2c0.4-0.4,1-0.6,1.5-0.6c0.6,0,1.1,0.2,1.5,0.6
				c0.9,0.8,0.9,2.1,0.2,3c-0.1,0.1-0.1,0.2-0.2,0.2l-11.1,11.1c0.8,0.1,1.5,0.6,1.8,1.4c0.3,0.8,0.1,1.8-0.5,2.4
				c-0.4,0.4-0.9,0.6-1.6,0.6c-0.6,0-1.2,0-1.7,0c-0.8,0-1.5,0-2.3,0c-1.1,1.1-2.1,2.1-3.2,3.2l-10.1,10.1c0.5-0.1,1-0.2,1.6-0.3
				c1.7-0.5,3.4-1.2,5.5-2.4c1.7-0.9,3.3-2,5.1-3.3c1.6-1.2,3.1-2.4,4.7-3.8c1.6-1.4,3.1-2.9,4.4-4.4c0.9-1,1.9-2.1,2.8-3.2
				c1.2-1.4,2.1-2.7,3-4.1c0.4-0.7,1.1-1.1,1.9-1.1c0.4,0,0.7,0.1,1.1,0.3c0.5,0.3,0.9,0.8,1.1,1.4c0.1,0.6,0,1.2-0.3,1.7
				c-0.7,1-1.4,2-2.1,3c-0.7,1-1.5,1.9-2.2,2.7c-1.2,1.3-2.1,2.4-3.1,3.4c-1.2,1.2-2.4,2.4-3.7,3.6c-0.2,0.2-0.4,0.3-0.5,0.5
				c0.1,0,0.2,0,0.3,0.1c0.8,0.2,1.4,0.8,1.7,1.6c0.2,0.6,0.1,1.2-0.2,1.7c0.4-0.3,0.8-0.6,1.2-0.9c1.4-1.1,2.5-2.2,3.6-3.3
				c0.1-0.1,0.3-0.3,0.4-0.5c0.1-0.1,0.2-0.2,0.3-0.3c-0.1-1.1-0.3-2.2-0.4-3.3c-0.1-0.9,0.3-1.7,1-2.1c0.4-0.2,0.7-0.3,1.1-0.3
				c0.4,0,0.8,0.1,1.2,0.4c0.2,0.2,0.4,0.4,0.6,0.6c1.2-2,2.1-4,2.8-6c0.3-0.9,1.1-1.5,2.1-1.5c0.1,0,0.1,0,0.2,0
				c0.7,0.1,1.3,0.4,1.7,1c0.4,0.6,0.4,1.3,0.2,1.9c-0.4,1.1-0.8,2.2-1.3,3.3c-0.8,1.8-1.8,3.5-3,5.4c-0.8,1.2-1.7,2.4-2.7,3.5
				c-1.1,1.2-2.3,2.4-3.5,3.6c-1.2,1.1-2.6,2.2-3.9,3.1c-1.8,1.3-3.7,2.3-5.7,3.2c-1.6,0.7-3.1,1.2-4.6,1.6c0.6,0.1,1.3,0.1,1.9,0.1
				c1.2,0,2.3-0.1,3.5-0.3c2.3-0.3,4.6-1,6.7-2.1c0-0.8,0-1.5,0-2.2c0-1.2,1-2.2,2.2-2.2c0.4,0,0.8,0.1,1.1,0.3
				c0.6,0.3,0.9,0.8,1,1.4c1-0.8,1.9-1.6,2.7-2.5c1-1.1,1.9-2.2,2.6-3.4c2.1-3.3,3.3-7,3.6-10.9c0.2-3.4-0.2-6.8-1.4-10
				c-0.3-0.7-0.2-1.5,0.2-2c0.4-0.6,1-0.9,1.7-1c0.1,0,0.1,0,0.2,0c0.9,0,1.7,0.6,2,1.5c0.3,0.8,0.5,1.6,0.8,2.5
				c0.3,1.1,0.6,2.3,0.7,3.5c0.2-0.1,0.4-0.1,0.6-0.1c0.6,0,1.1,0.2,1.5,0.6c0.4,0.4,0.7,1,0.7,1.5c0,0.6-0.2,1.1-0.6,1.5
				c-0.6,0.6-1.2,1.2-1.8,1.8l-0.2,0.2c-0.1,2-0.5,4.1-1,6c0.5,0.1,0.9,0.2,1.2,0.6c0.5,0.5,0.8,1.2,0.7,1.9
				c-0.1,0.7-0.5,1.3-1.2,1.6c-0.6,0.3-1.2,0.6-1.8,0.9c-0.4,0.2-0.8,0.4-1.2,0.6c-0.9,1.6-1.9,3.1-3,4.5c-1.2,1.4-2.5,2.7-3.9,3.9
				c-1.8,1.4-3.7,2.6-5.8,3.6c0.3,0.5,0.4,1.1,0.3,1.7c-0.2,0.9-1.1,1.6-2.1,1.6c0,0-0.1,0-0.1,0c-0.3,0-0.6-0.1-0.9-0.2
				c-0.5-0.3-1.1-0.5-1.6-0.8c-0.3-0.2-0.7-0.3-1-0.5c-1.7,0.4-3.5,0.6-5.3,0.7c0,0,0,0.1,0.1,0.1c0.5,1.1,0.1,2.4-1,2.9
				C462.4,300.9,462.1,301,461.8,301z M454.2,289.8c0.1,0,0.3,0,0.4,0c1.3,0,2.7-0.2,4.1-0.5c2.8-0.6,5.6-1.8,8.4-3.5
				c0.3-0.2,0.6-0.4,0.8-0.5c-0.1,0-0.3,0-0.4,0c-0.2,0-0.3,0-0.5,0l-0.6-0.1c-1.1-0.2-2.1-0.4-3.2-0.6c-2.4,1.8-4.7,3.2-7,4.4
				C455.6,289.2,454.9,289.5,454.2,289.8z M444.3,270.1c-0.8,2.1-1.3,4.1-1.5,5.9c-0.1,0.8-0.1,1.5-0.1,2.2c0.2-0.5,0.5-1.1,0.8-1.7
				c1.1-2.3,2.4-4.5,3.9-6.5c0.2-0.3,0.4-0.5,0.6-0.8c-0.2,0.1-0.4,0.2-0.6,0.2C446.1,269.7,445.1,269.9,444.3,270.1z"/>
		</g>
		<g>
			<path class="st25" d="M456,240.5c0.2,0,0.4,0.1,0.6,0.2c0.5,0.3,0.7,1,0.5,1.5c-0.2,0.4-0.4,0.8-0.6,1.2c0,0.1-0.1,0.1-0.1,0.2
				c0.1,0,0.2,0,0.3-0.1c2-0.5,4-0.7,6.1-0.7c1.1,0,2.2,0.1,3.3,0.2c0,0,0,0,0.1,0c0.1,0,0.2,0,0.2-0.1c0.7-0.7,1.4-1.4,2-2
				c0.2-0.2,0.5-0.4,0.8-0.4c0.5,0,1,0.3,1.1,0.9c0.1,0.4,0,0.8-0.3,1.1c-0.3,0.3-0.6,0.6-0.8,0.8c0,0-0.1,0.1-0.2,0.2
				c0.1,0,0.2,0.1,0.3,0.1c1.8,0.5,3.6,1.1,5.3,2c0.5,0.2,0.7,0.6,0.7,1.1c0,0.5-0.3,0.9-0.7,1.1c-0.2,0.1-0.3,0.1-0.5,0.1
				c-0.2,0-0.4,0-0.5-0.1c-1.2-0.6-2.5-1.1-3.9-1.5c-2.3-0.7-4.6-1-7-1c-0.2,0-0.5,0-0.7,0c-3,0.1-6,0.7-8.8,1.9
				c-1.8,0.8-3.6,1.7-5.2,2.9c-1.4,1-2.7,2.2-3.9,3.5c-1.2,1.4-2.3,2.8-3.1,4.4c0,0,0,0.1-0.1,0.1c0.3,0,0.5-0.1,0.8-0.1
				c0,0,0.1,0,0.1,0c0.8,0,1.4,0.8,1.1,1.6c-0.2,0.4-0.5,0.7-1,0.7c-0.7,0.1-1.4,0.2-2,0.3c-0.1,0-0.2,0.1-0.2,0.2
				c-0.8,2.1-1.4,4.3-1.6,6.5c-0.3,3-0.1,6,0.7,8.9c0.1,0.5,0.3,0.9,0.4,1.4c0,0,0,0.1,0.1,0.1c0-0.5,0-0.9,0.1-1.3
				c0.1-1.8,0.5-3.5,1-5.2c0.9-3.2,2.4-6.1,4.3-8.8c0.8-1.2,1.7-2.4,2.7-3.5c0.1-0.1,0.1-0.2,0.1-0.3c0-0.9,0-1.9,0-2.8
				c0-0.7,0.5-1.2,1.2-1.2c0,0,0,0,0,0c0.7,0,1.2,0.5,1.2,1.2c0,0.1,0,0.3,0,0.4c0,0,0,0,0.1,0c0.2-0.2,0.4-0.4,0.6-0.5
				c1-0.8,1.9-1.6,2.9-2.4c1.5-1.2,3.1-2.2,4.8-3.1c1.6-0.9,3.3-1.6,5.1-2.2c0.1,0,0.3-0.1,0.4-0.1c0.3,0,0.6,0.1,0.9,0.4
				c0.3,0.4,0.3,0.8,0.1,1.2c-0.1,0.3-0.4,0.5-0.7,0.6c-0.7,0.3-1.4,0.5-2.2,0.8c-2.1,0.9-4.1,2-6,3.3c-1.9,1.3-3.6,2.7-5.1,4.4
				c-2.2,2.3-4.1,4.9-5.7,7.7c0,0,0,0.1-0.1,0.1c0.4-0.1,0.8-0.2,1.1-0.2c0.3-0.1,0.5-0.1,0.8-0.2c0.1,0,0.1,0,0.2,0
				c0.6,0,1.1,0.4,1.1,1c0.1,0.6-0.3,1.2-0.9,1.3c-1.1,0.2-2.2,0.4-3.3,0.7c-0.2,0-0.3,0.1-0.4,0.3c-0.8,2.1-1.4,4.2-1.7,6.4
				c-0.2,2.1-0.1,4.2,0.5,6.3c0,0.1,0,0.1,0.1,0.2c0.1-0.3,0.2-0.7,0.2-1c0.4-1.6,1-3.1,1.7-4.5c1.1-2.2,2.4-4.3,3.8-6.3
				c1-1.3,1.9-2.6,3-3.8c1.1-1.3,2.3-2.6,3.5-3.8c0.1-0.1,0.1-0.2,0.1-0.3c-0.2-1.1-0.5-2.2-0.7-3.3c-0.1-0.6,0.2-1.1,0.7-1.4
				c0.1-0.1,0.3-0.1,0.4-0.1c0.5,0,1,0.4,1.1,0.9c0.1,0.6,0.2,1.2,0.4,1.8c0,0.1,0,0.1,0,0.2c0,0,0.1-0.1,0.1-0.1c1-0.9,2-1.8,3-2.6
				c2.1-1.7,4.4-3.2,6.8-4.6c1.9-1.1,4-2,6.1-2.6c1.8-0.5,3.5-0.9,5.4-0.9c0,0,0.1,0,0.1,0c1,0,2,0.1,2.9,0.4
				c0.8,0.3,1.1,1.2,0.6,1.8c-0.2,0.3-0.5,0.5-0.9,0.5c-0.1,0-0.2,0-0.3,0c-0.8-0.2-1.6-0.3-2.4-0.3c-1.1,0-2.2,0.2-3.3,0.4
				c-2.7,0.6-5.2,1.7-7.6,3c0,0,0,0-0.1,0.1c0.5,0.1,0.9,0.2,1.4,0.3c0.4,0.1,0.6,0.3,0.8,0.6c0.2,0.4,0.2,0.9-0.1,1.3
				c-0.2,0.3-0.5,0.5-0.9,0.5c-0.1,0-0.2,0-0.3,0c-1-0.2-2-0.4-2.9-0.6c-0.3-0.1-0.5-0.1-0.8-0.2c0,0-0.1,0-0.1,0
				c-0.1,0-0.2,0-0.2,0.1c-1.1,0.8-2.2,1.6-3.2,2.5c-1.3,1-2.6,2.2-3.8,3.4c-1,1-2.1,2.1-3,3.2c-1,1.2-2.1,2.4-3,3.7
				c-2,2.6-3.8,5.4-5.1,8.4c-0.7,1.5-1.2,3-1.5,4.6c-0.1,0.8-0.2,1.6,0,2.4c0,0.1,0,0.1,0.1,0.2c0.1-0.1,0.1-0.1,0.1-0.1
				c3.3-3.3,6.6-6.6,9.9-9.9c0.1-0.1,0.1-0.2,0.1-0.3c0-1.4,0-2.9,0-4.3c0-0.7,0.5-1.2,1.2-1.2c0.2,0,0.4,0,0.6,0.2
				c0.4,0.2,0.6,0.6,0.6,1c0,0.6,0,1.3,0,1.9c0,0.1,0,0.1,0,0.2c0,0,0,0,0.1,0c0,0,0.1-0.1,0.1-0.1c0.9-0.9,1.7-1.7,2.6-2.6
				c5-5,10.1-10.1,15.1-15.1c0.2-0.2,0.5-0.3,0.8-0.3c0.3,0,0.6,0.1,0.8,0.3c0.5,0.4,0.5,1.1,0.1,1.6c-0.1,0.1-0.1,0.1-0.2,0.2
				c-4.2,4.2-8.4,8.4-12.6,12.6c-0.1,0.1-0.1,0.1-0.2,0.2c0.1,0,0.2,0,0.2,0c0,0,0.1,0,0.1,0c0.4,0,0.7,0,1.1,0c0.3,0,0.5,0,0.8,0
				c0.5,0,0.9,0.3,1.1,0.8c0.2,0.4,0,1-0.3,1.3c-0.2,0.2-0.5,0.3-0.9,0.3c0,0,0,0,0,0c-1.4,0-2.8,0-4.2,0c0,0,0,0,0,0
				c-0.2,0-0.3,0.1-0.4,0.2c-1.4,1.4-2.8,2.8-4.2,4.2c-3.5,3.5-7.1,7.1-10.6,10.6c-0.1,0.1-0.1,0.1-0.2,0.2c0,0,0,0,0,0.1
				c0.3,0,0.6,0.1,0.9,0.1c0.2,0,0.3,0,0.5,0c0.9,0,1.9-0.2,2.8-0.4c2-0.6,3.9-1.4,5.7-2.5c1.8-1,3.5-2.1,5.2-3.4
				c1.6-1.2,3.2-2.5,4.7-3.9c1.6-1.4,3.1-2.9,4.5-4.5c1-1.1,1.9-2.1,2.8-3.2c1.1-1.3,2.1-2.7,3.1-4.2c0.3-0.5,0.7-0.6,1.1-0.6
				c0.2,0,0.4,0.1,0.6,0.1c0.6,0.3,0.8,1.1,0.4,1.6c-0.7,1-1.4,2-2.1,3c-0.7,0.9-1.4,1.8-2.2,2.7c-1,1.1-2,2.2-3,3.3
				c-1.2,1.2-2.4,2.4-3.6,3.5c-0.6,0.6-1.3,1.1-2,1.7c0,0-0.1,0.1-0.1,0.1c0.1,0,0.1,0,0.2,0c0.7,0.1,1.4,0.3,2.1,0.4
				c0.5,0.1,0.8,0.4,0.9,0.9c0.1,0.5,0,0.9-0.4,1.2c-0.2,0.2-0.5,0.3-0.8,0.3c-0.1,0-0.2,0-0.3,0c-1.4-0.3-2.7-0.5-4.1-0.8
				c0,0-0.1,0-0.1,0c-0.1,0-0.1,0-0.2,0.1c-2.2,1.7-4.6,3.2-7.1,4.5c-1.8,0.9-3.7,1.7-5.7,2.1c0,0-0.1,0-0.1,0.1
				c0.3,0.1,0.7,0.2,1,0.3c1.2,0.3,2.4,0.4,3.6,0.4c1.5,0,2.9-0.2,4.4-0.5c3.1-0.7,6-2,8.7-3.6c1.3-0.8,2.5-1.6,3.6-2.6
				c1.3-1.1,2.5-2.2,3.7-3.4c0.3-0.3,0.6-0.6,0.9-1c0.1-0.1,0.1-0.2,0.1-0.3c-0.1-1.2-0.3-2.4-0.4-3.6c-0.1-0.5,0.1-0.9,0.5-1.1
				c0.2-0.1,0.4-0.2,0.6-0.2c0.2,0,0.4,0.1,0.6,0.2c0.3,0.2,0.5,0.5,0.5,0.9c0,0.4,0.1,0.8,0.1,1.2c0,0.1,0,0.1,0,0.2
				c0.2-0.2,0.3-0.4,0.5-0.6c1.6-2.4,2.9-4.9,3.7-7.6c0.2-0.5,0.6-0.8,1.1-0.8c0,0,0.1,0,0.1,0c0.8,0.1,1.3,0.8,1,1.6
				c-0.4,1.1-0.8,2.2-1.2,3.2c-0.8,1.8-1.8,3.6-2.9,5.2c-0.8,1.2-1.7,2.3-2.6,3.4c-1.1,1.2-2.2,2.4-3.4,3.5c-1.2,1.1-2.5,2.1-3.8,3
				c-1.7,1.2-3.6,2.2-5.5,3.1c-2.6,1.1-5.3,1.9-8.1,2.2c-0.6,0.1-1.2,0.1-1.7,0.1c0,0-0.1,0-0.1,0c0.3,0.1,0.6,0.2,1,0.3
				c2.2,0.6,4.5,1,6.8,1c1.2,0,2.4-0.1,3.7-0.3c2.6-0.4,5.1-1.2,7.4-2.4c0.1-0.1,0.1-0.1,0.1-0.2c0-0.9,0-1.7,0-2.6
				c0-0.7,0.5-1.2,1.2-1.2c0.2,0,0.4,0.1,0.6,0.2c0.4,0.2,0.6,0.6,0.6,1c0,0.5,0,0.9,0,1.5c0.3-0.2,0.5-0.3,0.7-0.5
				c1.3-1,2.6-2,3.7-3.2c1-1.1,1.9-2.3,2.7-3.5c2.2-3.5,3.4-7.3,3.7-11.4c0.3-3.6-0.2-7.1-1.5-10.4c-0.3-0.8,0.2-1.6,1-1.7
				c0,0,0.1,0,0.1,0c0.5,0,0.9,0.3,1.1,0.8c0.3,0.8,0.5,1.6,0.8,2.4c0.4,1.6,0.7,3.3,0.9,4.9c0,0,0,0.1,0,0.2
				c0.2-0.2,0.4-0.4,0.6-0.6c0.2-0.2,0.5-0.3,0.8-0.3c0.3,0,0.6,0.1,0.8,0.3c0.5,0.4,0.5,1.2,0.1,1.6c-0.7,0.7-1.4,1.4-2.1,2.1
				c-0.1,0.1-0.2,0.2-0.2,0.4c-0.1,2.6-0.6,5.1-1.5,7.5c0,0,0,0.1,0,0.1c0.3-0.1,0.5-0.2,0.7-0.4c0.2-0.1,0.4-0.1,0.5-0.1
				c0.3,0,0.6,0.1,0.8,0.3c0.6,0.6,0.5,1.5-0.3,1.9c-1,0.5-2.1,1-3.1,1.6c-0.1,0-0.2,0.1-0.2,0.2c-0.9,1.6-1.9,3.1-3,4.5
				c-1.1,1.4-2.4,2.6-3.8,3.7c-2.1,1.7-4.5,3.1-7,4.1c0,0-0.1,0-0.2,0.1c0.3,0.1,0.5,0.2,0.7,0.4c0.5,0.3,0.7,0.8,0.6,1.3
				c-0.1,0.5-0.6,0.9-1.1,0.9c0,0,0,0,0,0c-0.2,0-0.4-0.1-0.5-0.1c-0.9-0.4-1.9-0.9-2.8-1.3c-0.1,0-0.1,0-0.2,0c0,0,0,0-0.1,0
				c-2.1,0.5-4.2,0.7-6.4,0.7c-0.1,0-0.2,0-0.3,0c0,0,0,0,0,0c0,0-0.1,0-0.2,0c0.2,0.3,0.3,0.6,0.4,0.9c0.1,0.2,0.2,0.4,0.3,0.6
				c0.3,0.6,0,1.3-0.5,1.6c-0.2,0.1-0.4,0.1-0.5,0.1c-0.4,0-0.8-0.2-1-0.6c-0.4-0.9-0.9-1.7-1.3-2.6c-0.1-0.2-0.2-0.2-0.3-0.2
				c-2.1-0.3-4.2-0.8-6.2-1.6c-2.2-0.8-4.2-1.9-6.1-3.3c-1.2-0.8-2.3-1.8-3.3-2.8c-1.5-1.5-2.8-3.1-3.8-4.9c-1.3-2.1-2.3-4.4-3-6.8
				c-0.2-0.7-0.4-1.5-0.5-2.2c0-0.1-0.1-0.2-0.2-0.3c-1-0.5-1.9-0.9-2.8-1.4c-0.8-0.4-0.9-1.4-0.3-2c0.2-0.2,0.5-0.3,0.8-0.3
				c0.2,0,0.4,0,0.6,0.1c0.5,0.2,0.9,0.5,1.4,0.7c0.1,0,0.1,0.1,0.2,0.1c0-0.5,0-1-0.1-1.4c0-1.4,0-2.8,0.2-4.2c0-0.1,0-0.2-0.1-0.3
				c-0.8-1.3-1.6-2.6-2.4-3.9c-0.3-0.5-0.3-1.1,0.1-1.5c0.2-0.2,0.5-0.4,0.9-0.4c0.2,0,0.4,0,0.5,0.1c0.2,0.1,0.4,0.3,0.5,0.4
				c0.4,0.6,0.8,1.3,1.2,1.9c0.1-0.3,0.1-0.5,0.2-0.8c0.4-1,0.7-2.1,1.1-3.1c0.8-1.8,1.8-3.5,3-5.2c1.2-1.6,2.5-3,4-4.3
				c2.1-1.8,4.4-3.3,6.9-4.4c0.4-0.2,0.8-0.3,1.2-0.5c0.1,0,0.2-0.1,0.3-0.2c0.5-1.1,1.1-2.1,1.6-3.2
				C455.1,240.7,455.5,240.5,456,240.5 M456,238.5c-1.2,0-2.3,0.7-2.9,1.8c-0.4,0.8-0.9,1.7-1.3,2.7c-0.3,0.1-0.5,0.2-0.8,0.3
				c-2.7,1.2-5.2,2.8-7.4,4.7c-1.6,1.4-3,3-4.3,4.7c-1.3,1.7-2.4,3.6-3.2,5.5c-0.1,0.2-0.1,0.3-0.2,0.5c-0.4-0.2-0.9-0.4-1.5-0.4
				c-0.9,0-1.7,0.4-2.3,1c-1,1-1.1,2.6-0.4,3.9l0.4,0.7c0.5,0.9,1.1,1.8,1.7,2.8c-0.1,0.8-0.1,1.6-0.2,2.4c0,0-0.1,0-0.1,0
				c-0.8,0-1.5,0.3-2.1,0.8c-0.8,0.7-1.2,1.8-1,2.8c0.1,1,0.8,2,1.8,2.4c0.8,0.4,1.5,0.8,2.2,1.1c0.1,0.5,0.2,1,0.4,1.6
				c0.7,2.5,1.8,5,3.2,7.3c1.2,1.9,2.5,3.6,4.1,5.2c1.1,1.1,2.3,2.1,3.6,3c2,1.5,4.2,2.6,6.5,3.5c1.9,0.7,3.8,1.2,5.8,1.5
				c0.3,0.7,0.7,1.3,1,1.9c0.5,1.1,1.6,1.7,2.8,1.7c0.5,0,1-0.1,1.4-0.3c1.2-0.6,1.8-1.8,1.7-3c1.3-0.1,2.6-0.3,3.9-0.6
				c0.2,0.1,0.4,0.2,0.7,0.3c0.5,0.3,1.1,0.5,1.6,0.8c0.4,0.2,0.9,0.3,1.3,0.3c0,0,0.1,0,0.1,0c1.4,0,2.7-1,3.1-2.4
				c0.1-0.5,0.1-1,0-1.5c1.8-0.9,3.5-2,5.1-3.3c1.5-1.2,2.8-2.5,4-4c1.1-1.4,2.1-2.9,3-4.4c0.3-0.2,0.6-0.3,0.9-0.4
				c0.6-0.3,1.2-0.6,1.8-0.9c0.9-0.5,1.6-1.4,1.7-2.4c0.1-1-0.2-2.1-1-2.8c-0.2-0.2-0.4-0.4-0.7-0.5c0.4-1.6,0.6-3.2,0.8-4.9
				c0.6-0.6,1.2-1.1,1.7-1.7c0.6-0.6,0.9-1.4,0.9-2.2c0-0.9-0.4-1.6-1-2.2c-0.5-0.5-1.2-0.8-1.9-0.9c-0.2-0.9-0.4-1.9-0.6-2.7
				c-0.2-0.9-0.5-1.8-0.8-2.5c-0.4-1.3-1.6-2.2-3-2.2c-0.1,0-0.2,0-0.3,0c-1,0.1-1.9,0.6-2.4,1.4c-0.5,0.9-0.7,1.9-0.3,2.9
				c0.5,1.4,0.9,2.8,1.1,4.2c-0.4-0.2-0.8-0.3-1.2-0.3c-0.1,0-0.2,0-0.3,0c-1.1,0-2.1,0.6-2.7,1.6c0.1-0.5,0.1-1,0-1.5
				c-0.2-0.9-0.8-1.6-1.5-2.1c-0.5-0.3-1-0.4-1.6-0.4c-1.1,0-2.2,0.6-2.8,1.6c-0.8,1.3-1.7,2.6-2.9,3.9c-0.9,1.1-1.9,2.2-2.8,3.1
				c0,0,0,0,0,0c0.1-0.6,0.1-1.1-0.2-1.7c-0.2-0.5-0.5-1-1-1.3l10-10l0,0c0.1-0.1,0.2-0.2,0.3-0.3c1.1-1.2,1-3,0-4.2
				c0.7,0,1.3,0.1,1.8,0.2c0.3,0.1,0.5,0.1,0.8,0.1c1,0,1.9-0.5,2.5-1.3c0.6-0.8,0.8-1.9,0.5-2.9c-0.3-1-1.1-1.8-2.1-2.1
				c-1.1-0.3-2.2-0.5-3.5-0.5c-0.1,0-0.1,0-0.2,0c-0.3,0-0.7,0-1,0c0.2-0.4,0.3-0.9,0.3-1.4c0-1.3-0.7-2.4-1.8-2.9
				c-1.1-0.5-2.1-1-3.2-1.4c0.1-0.5,0.1-1,0-1.6c-0.4-1.4-1.6-2.4-3.1-2.4c-0.8,0-1.6,0.3-2.3,0.9c-0.5,0.5-1,1-1.5,1.5
				c-0.9-0.1-1.8-0.1-2.8-0.1c-1.2,0-2.4,0.1-3.6,0.2c-0.2-0.9-0.7-1.6-1.5-2.1C457.1,238.6,456.5,238.5,456,238.5L456,238.5z
				 M456.5,256.2c0.1-0.1,0.2-0.1,0.3-0.2c1.8-1.3,3.7-2.3,5.6-3.1c0.5-0.2,1-0.4,1.5-0.6c0.2-0.1,0.4-0.1,0.6-0.2
				c0.8-0.3,1.4-0.9,1.8-1.6c0.5-1,0.4-2.2-0.2-3.1c1.1,0.2,2.1,0.4,3.1,0.7c0.9,0.3,1.9,0.6,2.8,1c-2.1,0.7-4.2,1.6-6.4,2.8
				c-2.4,1.3-4.8,2.9-7.1,4.8c-0.3,0.2-0.5,0.4-0.8,0.6C457.5,256.8,457,256.4,456.5,256.2L456.5,256.2z M448,252.6
				c0.4-0.4,0.9-0.7,1.3-1c1.5-1.1,3.1-2,4.7-2.7c1.6-0.7,3.3-1.2,5-1.4c-0.7,0.3-1.3,0.6-2,1c-2,1-3.6,2.1-5.1,3.3
				c-0.6,0.5-1.1,0.9-1.7,1.4c-0.5-0.3-1.1-0.5-1.8-0.5l0,0C448.3,252.6,448.2,252.6,448,252.6L448,252.6z M444.1,256.8
				c0.4-0.5,0.8-1.1,1.2-1.6c0,0.2-0.1,0.4-0.1,0.6c0,0.3,0,0.7,0,1c0,0.4,0,0.8,0,1.2c-0.1,0.1-0.2,0.3-0.3,0.4
				c-0.1-0.4-0.2-0.8-0.5-1.1C444.4,257.1,444.3,256.9,444.1,256.8L444.1,256.8z M471.3,256.1c0.3-0.1,0.5-0.2,0.8-0.3
				c-0.2,0.2-0.4,0.4-0.7,0.7C471.4,256.4,471.4,256.3,471.3,256.1L471.3,256.1z M455.6,268.3C455.6,268.3,455.6,268.3,455.6,268.3
				c1-1.2,2.1-2.2,3-3.2c1.2-1.2,2.4-2.3,3.6-3.2c0.7-0.5,1.4-1.1,2.1-1.6c0.2-0.1,0.3-0.3,0.5-0.4c0,0,0,0,0.1,0l0.9,0.2
				c0.6,0.1,1.2,0.2,1.8,0.4c-1.9,1.9-3.8,3.8-5.7,5.7l-3.3,3.3l0,0c-0.3-0.3-0.6-0.6-1-0.8c-0.5-0.3-1-0.4-1.5-0.4
				C455.8,268.3,455.7,268.3,455.6,268.3L455.6,268.3z M448.4,264.5c1.1-1.5,2.3-3,3.6-4.4c0,0,0.1-0.1,0.1-0.1
				c0.1,0.7,0.3,1.5,0.4,2.2c-0.1,0.1-0.3,0.3-0.4,0.4c-0.9,0.9-1.7,1.9-2.6,2.9c0,0,0,0,0,0.1C449.2,265.1,448.8,264.8,448.4,264.5
				L448.4,264.5z M441.3,262.4c0.3,0,0.6-0.1,0.9-0.1c-0.7,1-1.2,2.1-1.8,3.1C440.7,264.3,441,263.3,441.3,262.4L441.3,262.4z
				 M477.1,272.5c0.3-0.4,0.6-0.7,0.9-1.1c0.8-1,1.5-2,2.2-3.1c0,0,0-0.1,0.1-0.1c-0.5,1.6-1.2,3.1-2,4.7
				C477.9,272.6,477.5,272.5,477.1,272.5L477.1,272.5z M445,271c0.2,0,0.4-0.1,0.5-0.1c-0.4,0.5-0.7,1.1-1,1.6
				C444.6,272,444.8,271.5,445,271L445,271z M447.6,280.4c0.1-0.2,0.2-0.4,0.3-0.6c1.2-2.6,2.7-5.2,4.8-8c0,0,0.1-0.1,0.1-0.1
				c0,1.2,0,2.3,0,3.5C451.1,276.9,449.3,278.6,447.6,280.4L447.6,280.4z M475.9,285.8c1.1-1,2.2-2.1,3.2-3.3c1-1.2,2-2.4,2.8-3.6
				c1.1-1.7,2.1-3.3,2.8-4.9c-0.5,2.8-1.6,5.5-3.1,7.9c-0.7,1.1-1.6,2.2-2.5,3.2c-0.5,0.5-1.1,1.1-1.6,1.6c-0.2-0.3-0.5-0.5-0.9-0.7
				C476.4,286,476.1,285.9,475.9,285.8L475.9,285.8z M465.8,274.7c0.3,0,0.5,0,0.7-0.1c-0.6,0.6-1.2,1.2-1.8,1.7
				c-1.5,1.4-3,2.6-4.6,3.8c-1.7,1.3-3.4,2.3-5,3.2c-1.1,0.6-2.2,1.1-3.1,1.5l6.4-6.4l0.9-0.9c1-1,1.9-1.9,2.9-2.9
				c0.6,0,1.2,0,1.9,0C464.7,274.7,465.3,274.7,465.8,274.7L465.8,274.7z M469.5,280.6c1.1-1,2.1-2,3.1-3c0.3-0.3,0.6-0.7,1-1
				c0.1,0.7,0.2,1.5,0.3,2.3c-0.1,0.1-0.2,0.3-0.4,0.4c-0.9,0.9-1.8,1.8-2.9,2.8C470.4,281.4,470,280.9,469.5,280.6L469.5,280.6z
				 M459.9,288c1.2-0.7,2.4-1.6,3.7-2.5c0.5,0.1,1,0.2,1.5,0.3C463.3,286.8,461.6,287.5,459.9,288L459.9,288z M467.1,291.9
				c1.5-0.7,3-1.6,4.4-2.6c0.1-0.1,0.2-0.2,0.4-0.3c0,0.4,0,0.9,0,1.3C470.3,291.1,468.7,291.6,467.1,291.9L467.1,291.9z"/>
		</g>
	</g>
</g>
<g>
	<path class="st23" d="M170.3,279.7h-47.9c-1.8,0-3.4-1.5-3.4-3.4v-9.3c0-1.8,1.5-3.4,3.4-3.4h47.9c1.8,0,3.4,1.5,3.4,3.4v9.3
		C173.6,278.2,172.1,279.7,170.3,279.7z"/>
</g>
<g class="st2">
	<path d="M155.3,279.7c1.7,0,13.5-1.3,13.5,0.4l-4.1,16.9c0,1.7-1.4,3.1-3.1,3.1h-6.4"/>
</g>
<g class="st2">
	<path d="M150.8,263.8h18.8c1.8,0,3.4,1.5,3.4,3.4v9.3c0,1.8-1.5,3.4-3.4,3.4h-18.8"/>
</g>
<g>
	<path class="st26" d="M163,301.1h-33.2c-2.2,0-4-1.8-4.1-3.9l-4.1-16.8l2-0.5l4.1,17v0.1c0,1.1,0.9,2.1,2.1,2.1H163
		c1.1,0,2.1-0.9,2.1-2.1v-0.1l4.1-17l2,0.5l-4.1,16.8C167,299.4,165.2,301.1,163,301.1z"/>
</g>
<g>
	<path class="st26" d="M170.3,280.8h-47.9c-2.4,0-4.4-2-4.4-4.4v-9.3c0-2.4,2-4.4,4.4-4.4h47.9c2.4,0,4.4,2,4.4,4.4v9.3
		C174.7,278.8,172.7,280.8,170.3,280.8z M122.4,264.8c-1.3,0-2.3,1.1-2.3,2.3v9.3c0,1.3,1.1,2.3,2.3,2.3h47.9c1.3,0,2.3-1.1,2.3-2.3
		v-9.3c0-1.3-1.1-2.3-2.3-2.3H122.4z"/>
</g>
<g>
	<path class="st12" d="M220.3,301.6c-2.6,0-4.8-1.7-5.3-4h-24c-0.5,2.3-2.7,4-5.3,4c-3,0-5.4-2.3-5.4-5c0-1.2,0.5-2.4,1.3-3.3
		c-0.8-0.9-1.3-2.1-1.3-3.3c0-2.8,2.4-5,5.4-5c2.6,0,4.8,1.7,5.3,4h24c0.5-2.3,2.7-4,5.3-4c3,0,5.4,2.3,5.4,5c0,1.2-0.5,2.4-1.3,3.3
		c0.8,0.9,1.3,2.1,1.3,3.3C225.8,299.3,223.3,301.6,220.3,301.6z M189.1,295.5h27.8v1c0,1.7,1.5,3,3.4,3c1.9,0,3.4-1.4,3.4-3
		c0-1-0.5-1.9-1.4-2.4l-1.3-0.8l1.3-0.8c0.9-0.6,1.4-1.5,1.4-2.4c0-1.7-1.5-3-3.4-3c-1.9,0-3.4,1.4-3.4,3v1h-27.8v-1
		c0-1.7-1.5-3-3.4-3s-3.4,1.4-3.4,3c0,1,0.5,1.9,1.4,2.4l1.3,0.8l-1.3,0.8c-0.9,0.6-1.4,1.5-1.4,2.4c0,1.7,1.5,3,3.4,3
		s3.4-1.4,3.4-3V295.5z"/>
</g>
<g>
	<circle class="st7" cx="297.1" cy="270.3" r="4.6"/>
	<path class="st7" d="M297.1,275.9c-3.1,0-5.6-2.5-5.6-5.6s2.5-5.6,5.6-5.6c3.1,0,5.6,2.5,5.6,5.6S300.3,275.9,297.1,275.9z
		 M297.1,266.7c-2,0-3.6,1.6-3.6,3.6s1.6,3.6,3.6,3.6c2,0,3.6-1.6,3.6-3.6S299.1,266.7,297.1,266.7z"/>
</g>
<g>
	<path class="st7" d="M306.9,274.5c-0.4,0-0.8-0.3-0.9-0.7c-0.6-1.7-2.5-2.6-4.2-2c-0.5,0.2-1.1-0.1-1.3-0.6
		c-0.2-0.5,0.1-1.1,0.6-1.3c1.3-0.5,2.8-0.4,4.1,0.2c1.3,0.6,2.3,1.7,2.7,3c0.2,0.5-0.1,1.1-0.6,1.3
		C307.1,274.5,307,274.5,306.9,274.5z"/>
</g>
<g>
	<path class="st7" d="M301.2,269.8c-0.2,0-0.4-0.1-0.6-0.2c-0.4-0.3-0.5-1-0.2-1.4c1.7-2.4,5.1-2.9,7.4-1.1c0.4,0.3,0.5,1,0.2,1.4
		c-0.3,0.4-1,0.5-1.4,0.2c-1.5-1.1-3.5-0.8-4.6,0.7C301.8,269.6,301.5,269.8,301.2,269.8z"/>
</g>
<g>
	<path class="st7" d="M304.7,279.1C304.7,279.1,304.6,279.1,304.7,279.1c-0.6,0-1-0.5-1-1.1c0.1-1.8-1.2-3.4-3-3.5
		c-0.6,0-1-0.5-0.9-1.1c0-0.6,0.5-1,1.1-0.9c2.9,0.2,5.1,2.8,4.9,5.7C305.6,278.7,305.2,279.1,304.7,279.1z"/>
</g>
<g>
	<path class="st7" d="M299.8,267.9c-0.1,0-0.1,0-0.2,0c-0.5-0.1-0.9-0.6-0.8-1.2c0.6-2.9,3.4-4.7,6.2-4.2c0.5,0.1,0.9,0.6,0.8,1.2
		c-0.1,0.5-0.6,0.9-1.2,0.8c-1.8-0.4-3.5,0.8-3.9,2.6C300.7,267.6,300.3,267.9,299.8,267.9z"/>
</g>
<g>
	<path class="st7" d="M287.4,274.5c-0.1,0-0.2,0-0.3-0.1c-0.5-0.2-0.8-0.8-0.6-1.3c1-2.7,4.1-4.2,6.8-3.1c0.5,0.2,0.8,0.8,0.6,1.3
		c-0.2,0.5-0.8,0.8-1.3,0.6c-1.7-0.6-3.6,0.3-4.2,2C288.2,274.3,287.8,274.5,287.4,274.5z"/>
</g>
<g>
	<path class="st7" d="M293.1,269.8c-0.3,0-0.6-0.1-0.8-0.4c-1.1-1.5-3.1-1.8-4.6-0.7c-0.4,0.3-1.1,0.2-1.4-0.2
		c-0.3-0.4-0.2-1.1,0.2-1.4c2.4-1.7,5.7-1.2,7.4,1.1c0.3,0.4,0.2,1.1-0.2,1.4C293.6,269.7,293.4,269.8,293.1,269.8z"/>
</g>
<g>
	<path class="st7" d="M289.6,279.1c-0.5,0-1-0.4-1-0.9c-0.2-2.9,1.9-5.5,4.9-5.7c0.6,0,1,0.4,1.1,0.9c0,0.6-0.4,1-0.9,1.1
		c-1.8,0.1-3.2,1.7-3,3.5C290.7,278.5,290.3,279,289.6,279.1C289.7,279.1,289.6,279.1,289.6,279.1z"/>
</g>
<g>
	<path class="st7" d="M294.5,267.9c-0.5,0-0.9-0.3-1-0.8c-0.4-1.8-2.1-2.9-3.9-2.6c-0.5,0.1-1.1-0.2-1.2-0.8
		c-0.1-0.5,0.2-1.1,0.8-1.2c2.9-0.6,5.7,1.3,6.2,4.2c0.1,0.5-0.2,1.1-0.8,1.2C294.6,267.9,294.5,267.9,294.5,267.9z"/>
</g>
<g class="st8">
	<g>
		<defs>
			<path id="SVGID_7_" d="M378.2,269.3c0.6,0.5,1.5,0.3,1.9-0.3c0.5-0.6,0.3-1.5-0.3-1.9c-2.5-1.9-5.9-1.8-8.4-0.2
				c-0.2-0.3-0.5-0.6-0.8-0.9c0.9-1.8,2.9-2.9,4.9-2.4c0.8,0.1,1.5-0.3,1.6-1.1c0.1-0.7-0.3-1.5-1.1-1.6c-3.2-0.6-6.3,0.9-7.8,3.6
				c-0.6-0.3-1.2-0.4-1.8-0.5v-38.2h-2.8v38.2c-0.6,0.1-1.2,0.3-1.7,0.5c-1.5-2.7-4.6-4.2-7.8-3.6c-0.7,0.1-1.2,0.9-1.1,1.6
				c0.1,0.7,0.9,1.2,1.6,1.1c2-0.4,4,0.6,4.9,2.4c-0.3,0.3-0.5,0.6-0.8,0.9c-0.9-0.6-1.9-1-2.9-1.1c-1.9-0.3-3.8,0.2-5.4,1.3
				c-0.6,0.5-0.7,1.3-0.3,1.9c0.5,0.6,1.3,0.7,1.9,0.3c1-0.7,2.2-1,3.4-0.8c0.8,0.1,1.5,0.4,2.1,0.9c-0.1,0.4-0.2,0.9-0.3,1.3
				c-3-0.1-5.9,1.8-7,4.8c-0.3,0.7,0.1,1.5,0.8,1.8c0.2,0.1,0.3,0.1,0.5,0.1c0.6,0,1.1-0.3,1.3-0.9c0.7-1.9,2.6-3.1,4.6-2.9
				c0.1,0.5,0.3,1,0.5,1.4c-3,1.1-5,4.1-4.7,7.4c0.1,0.7,0.7,1.3,1.4,1.3c0,0,0.1,0,0.1,0c0.8-0.1,1.3-0.7,1.3-1.5
				c-0.2-2.4,1.5-4.4,3.8-4.8c1.4,1.2,3.2,2,5.2,2c2,0,3.8-0.8,5.2-2c2.3,0.4,4,2.5,3.8,4.8c-0.1,0.8,0.5,1.4,1.3,1.5
				c0,0,0.1,0,0.1,0c0.7,0,1.3-0.5,1.4-1.3c0.3-3.3-1.8-6.3-4.8-7.4c0.2-0.4,0.4-0.9,0.5-1.4c2-0.2,3.9,1,4.6,2.9
				c0.2,0.6,0.7,0.9,1.3,0.9c0.2,0,0.3,0,0.5-0.1c0.7-0.3,1.1-1.1,0.8-1.8c-1.1-3-4-4.8-7-4.8c0-0.4-0.1-0.9-0.3-1.3
				C374.3,268.2,376.6,268.1,378.2,269.3z"/>
		</defs>
		<clipPath id="SVGID_8_">
			<use xlink:href="#SVGID_7_"  style="overflow:visible;"/>
		</clipPath>
		<rect x="350" y="243.3" class="st27" width="30.6" height="40.3"/>
		<rect x="350" y="233.5" class="st27" width="30.6" height="9.9"/>
		<rect x="350" y="225.7" class="st27" width="30.6" height="7.8"/>
	</g>
</g>
</svg>
